<?xml version="1.0" encoding="UTF-8"?>
<svg width="95px" height="95px" viewBox="0 0 95 95" version="1.1" xmlns="http://www.w3.org/2000/svg" xmlns:xlink="http://www.w3.org/1999/xlink">
    <!-- Generator: Sketch 53.2 (72643) - https://sketchapp.com -->
    <title>Group</title>
    <desc>Created with Sketch.</desc>
    <g id="Page-1" stroke="none" stroke-width="1" fill="none" fill-rule="evenodd">
        <g id="Group" transform="translate(2.000000, 2.000000)" stroke="#FFFFFF">
            <circle id="Oval" stroke-width="4" cx="45.5" cy="45.5" r="45.5"></circle>
            <path d="M3.73093418,61.0922412 C7.01639535,61.0922412 10.3817566,61.0922412 13.8270181,61.0922412 C28.0110174,61.0922412 37.0141157,46.5350802 30.5939998,37.1520748 C29.2670956,34.9265953 18.0050319,29.6813727 14.8867588,40.3855005 C13.5663996,46.1452386 20.8898682,47.80489 21.657,43.615 C22.9216603,45.8675327 20.3962837,48.6480306 18.0315463,48.1790153 C15.6668089,47.71 10.2941476,45.3765685 12.1361065,37.8172133 C14.4153079,31.5009274 20.3196463,27.8796321 28.6607379,30.489 C37.0018296,33.0983679 38.6539554,41.4893986 38.6539554,42.5521993 C38.923528,44.7133573 41.1029948,64.1261977 18.0315463,67.9385179 C10.7154149,68.2219827 6.90533818,68.2219827 6.60131618,67.9385179 L3.73093418,61.0922412 Z" id="Path-34" stroke-width="0.5" fill="#FFFFFF"></path>
            <path d="M17.658,41.359 C19.272332,40.2255253 20.887835,39.9102684 22.5045091,40.4132293 C25.7105924,40.9171657 28.5916923,50.0023609 15.3624834,51.8651991 C11.1376505,52.1291658 6.77748943,52.2487661 2.282,52.224 L3.0650593,57.4038174 L3.73093418,57.7100714 C6.70404988,57.7100714 9.30388191,57.7100714 11.5304303,57.7100714 C14.8702528,57.7100714 23.50609,55.6431127 27.3707732,49.2894753 C29.8073438,45.2041371 27.6287406,41.1869854 27.0308648,40.4132293 C26.4329891,39.6394733 24.5978235,37.1066833 19.9941917,39.2328417 C18.6956238,39.9175358 17.9168932,40.6262552 17.658,41.359 Z" id="Path-35" stroke-width="0.5" fill="#FFFFFF"></path>
            <path d="M38.162,61.037 C53.3738913,51.2742804 63.7962388,52.5022957 69.4290424,64.7210459 C72.3562776,71.5815765 66.0218563,79.1238139 59.7298053,77.2359401 C53.4377543,75.3480663 53.089563,69.4650851 55.385,67.598 C53.9135321,71.5445561 55.9632977,73.3836455 57.101128,74.1165359 C58.2389582,74.8494263 69.0234286,76.781035 66.3070192,65.9147944 C64.7090927,60.6011606 56.744894,54.4501698 45.5,58.338802 C41.984695,59.5825672 39.538695,60.4819665 38.162,61.037 Z" id="Path-36" stroke-width="0.5" fill="#FFFFFF"></path>
            <path d="M41.137,63.599 C48.1804527,61.3755814 53.5517777,60.9250999 57.250975,62.2475555 C62.7997709,64.2312389 64.1020787,69.965953 60.409,70.366 C59.2993888,70.4704019 58.5977557,70.0640117 58.5977557,68.1511165 C56.836146,70.0326477 58.2010337,72.0524605 60.9295086,72.0524605 C63.6579834,72.0524605 67.5164699,66.3693788 61.7241262,61.757 C55.9317825,57.1446212 49.9402439,58.8488624 48.18075,59.5175064 C47.0077541,59.9632691 44.6598374,61.3237669 41.137,63.599 Z" id="Path-37" stroke-width="0.3" fill="#FFFFFF"></path>
            <path d="M68.608,76.2104541 C72.2010951,73.5595773 73.2947618,69.8344259 71.889,65.035 C74.1214239,67.4261394 75.9477505,74.2798363 69.9754273,76.0237288 C69.4461842,76.1975857 68.9903751,76.2598275 68.608,76.2104541 Z" id="Path-38" stroke-width="0.5" fill="#FFFFFF"></path>
            <path d="M65.4441065,25.6190034 C65.9697929,40.2008384 55.9910277,45.004995 45.27,50.585 C69.2667755,47.71 76.7822319,24.1713975 64.9184202,12.3422315 C56.1236106,5.51627443 46.5980059,11.2507973 46.9595098,18.5620343 C46.4814244,24.5491964 56.0853735,27.9007596 56.278629,18.8864087 C55.2674325,20.5910353 53.963839,20.8416544 52.9376265,20.4337147 C50.6879188,19.6197303 51.1106047,12.3422315 56.8937552,13.0757866 C62.6769057,13.8093418 65.2106863,19.1442385 65.4441065,25.6190034 Z" id="Path-39" stroke-width="0.5" fill="#FFFFFF"></path>
            <path d="M49.848,27.313 C44.500247,26.4834433 42.5869136,23.2717766 44.108,17.678 C40.1974593,20.113087 40.0129849,28.0550962 46.7253696,28.0550962 C47.7617228,28.0550962 48.8025997,27.8077308 49.848,27.313 Z" id="Path-40" stroke-width="0.5" fill="#FFFFFF"></path>
            <path d="M46.5623323,47.71 C51.5539651,44.8484345 54.4782904,43.0978143 55.3353081,42.4581396 C56.6208347,41.4986274 61.6292527,37.9347061 60.9295086,33.7252418 C60.5442587,31.8857687 59.4983123,31.113685 57.680437,30.489 C58.0326373,31.8857687 61.036788,35.4492929 53.1400385,42.2401348 C51.7335305,43.4645971 49.5409617,45.2878855 46.5623323,47.71 Z" id="Path-41" stroke-width="0.5" fill="#FFFFFF"></path>
        </g>
    </g>
</svg>