<?xml version="1.0" encoding="utf-8"?>
<!-- Generator: Adobe Illustrator 24.1.0, SVG Export Plug-In . SVG Version: 6.00 Build 0)  -->
<svg version="1.1" id="Layer_1" xmlns="http://www.w3.org/2000/svg" xmlns:xlink="http://www.w3.org/1999/xlink" x="0px" y="0px"
	 viewBox="0 0 35 35" style="enable-background:new 0 0 35 35;" xml:space="preserve">
<style type="text/css">
	.st0{fill:#FFFFFF;}
</style>
<g>
	<path class="st0" d="M6.9,29.7L6.9,29.7L6.9,29.7L6.9,29.7L6.9,29.7z"/>
	<g>
		<path class="st0" d="M17,29.7c0.3,0,0.4-0.2,0.2-0.4c0,0-1.5-1.8-3.1-4.2h2.1c0.3,0,0.3-0.2,0.2-0.4c0,0-1.5-1.9-3-4.3
			c0,0,0-0.1-0.1-0.1h1.8h0.4h0.1l0,0l0,0l0,0l0,0l0,0l0,0c0-0.1,0-0.2,0-0.3c0,0-0.2-0.2-0.5-0.6c-0.1-0.1-0.1-0.2-0.2-0.2l0,0
			c-0.1-0.1-0.1-0.2-0.2-0.2c0,0,0,0,0-0.1c-0.1-0.1-0.1-0.2-0.2-0.3c0,0,0,0,0-0.1c-0.1-0.1-0.1-0.2-0.2-0.3c0,0,0,0,0-0.1
			c-0.1-0.1-0.1-0.2-0.2-0.3l0,0c-0.1-0.1-0.2-0.2-0.2-0.4l0,0c-0.1-0.1-0.2-0.3-0.3-0.4l0,0c-0.1-0.1-0.2-0.3-0.3-0.4
			c-0.2-0.3-0.4-0.6-0.6-1c-0.8-1.3-1.6-3.1-1.6-3.1c-0.1-0.1-0.1-0.1-0.2-0.1s-0.2,0-0.2,0.1c0,0-0.9,1.8-1.6,3.1
			C7.4,17.7,5.7,20,5.7,20c-0.1,0.2,0,0.4,0.2,0.4h2.3c-1.5,2.4-3.1,4.4-3.1,4.4c-0.1,0.2,0,0.4,0.2,0.4h2.1
			c-0.8,1.2-1.6,2.1-2.1,2.9c3,3.4,7.3,5.6,12.2,5.6h0.1c-0.4-0.5-1.6-2-3-4H17z"/>
		<path class="st0" d="M27.5,25.5l0.9-1.3l-5.5-3.6l0,0l-0.2-0.1l0,0L18.9,18l-2.5,1.5c0.2,0.3,0.2,0.8,0,1.1
			c-0.2,0.3-0.5,0.5-1,0.5h-0.8c1.2,1.7,2.3,3.1,2.3,3.1l0,0l0,0c0.2,0.3,0.2,0.8,0.1,1.1c-0.2,0.3-0.5,0.5-1,0.5h-0.6
			c1.2,1.6,2.1,2.9,2.1,2.9l0,0l0,0c0.2,0.3,0.3,0.8,0.1,1.2c-0.2,0.3-0.5,0.5-1,0.5h-0.9c1.2,1.6,2.1,2.8,2.1,2.8l0,0l0,0
			c0,0.1,0.1,0.1,0.1,0.2c2.6-0.2,4.9-1,7.1-2.1v-5.8H27.5z M23.2,28.2h-2.6v-2.6h2.6V28.2z"/>
		<path class="st0" d="M25,9.8L25,9.8c0.3,1.1-0.4,2.5-1.8,2.8l0,0c0.3-0.8,0.4-1.4,0.4-2c0.1-1.2-0.3-2.6-1.1-3.6
			c-0.9-1.1-1.8-1.9-3.6-2.4l0,0c0.4,1.3,0.1,2.3-0.6,3.4c-0.6,1.2-2,2.1-2.9,3.2s-1.8,2.1-2.1,3.3c0,0.1,0,0.2,0,0.3c0,0,0,0,0,0.1
			c1,1.6,2,3.1,2.7,4l0.3-0.2c-0.4-1.6,0.1-3.3,1.8-4.4c0.1,0.9,0.4,1.7,1.4,2.1c-0.2-0.4-0.2-0.8-0.2-1.3c0.1-1.3,1.1-2.4,2.4-3
			c-0.4,0.8-0.1,1.2,0.3,1.9c0.6,1.4,2.3,2.4,2.3,3.9c0,0.8-0.2,1.5-0.9,2.1l0.6,0.4c0.9-0.3,1.6-0.9,2.3-1.4
			c1.6-1.4,2.1-3.4,1.8-5.3C27.7,12,27.1,10.5,25,9.8z"/>
	</g>
</g>
<path class="st0" d="M17.4,0C7.8,0-0.1,7.8-0.1,17.5S7.8,35,17.4,35s17.5-7.8,17.5-17.5S27.1,0,17.4,0z M17.4,33.6
	c-8.9,0-16.1-7.2-16.1-16.1S8.5,1.4,17.4,1.4s16.1,7.2,16.1,16.1S26.3,33.6,17.4,33.6z"/>
</svg>
