<?xml version="1.0" encoding="utf-8"?>
<!-- Generator: Adobe Illustrator 24.0.0, SVG Export Plug-In . SVG Version: 6.00 Build 0)  -->
<svg version="1.1" id="Layer_1" xmlns="http://www.w3.org/2000/svg" xmlns:xlink="http://www.w3.org/1999/xlink" x="0px" y="0px"
	 viewBox="0 0 144 144" style="enable-background:new 0 0 144 144;" xml:space="preserve">
<style type="text/css">
	.st0{fill:#2E2E2E;}
	.st1{fill:none;}
</style>
<g>
	<g>
		<path class="st0" d="M72.14,10.37c-33.98,0-61.78,27.65-61.78,61.78c0,33.98,27.65,61.63,61.63,61.63s61.63-27.65,61.63-61.63
			C133.78,38.02,106.13,10.37,72.14,10.37z M103.39,113.9c-0.43,1.73-2.3,3.31-3.74,4.18c-1.87,1.15-4.03,1.73-6.19,1.73
			c-2.74,0-5.33-0.86-7.34-2.45c-4.03,3.31-10.51,3.31-14.69,0c-4.03,3.31-10.51,3.31-14.69,0c-3.46,2.74-8.5,3.17-12.53,1.3
			c-1.73-0.86-3.31-2.02-4.32-3.74s-0.29-3.89,2.02-4.03c2.16-0.14,2.74,2.16,4.46,3.02c1.58,0.86,3.6,1.01,5.33,0.43
			c0.86-0.29,1.73-0.72,2.3-1.44c0.72-0.72,1.01-1.44,2.02-1.73c2.16-0.58,2.74,1.01,4.03,2.16c1.58,1.3,3.89,1.73,5.9,1.15
			c1.01-0.29,2.02-0.72,2.74-1.58c0.86-1.01,1.3-2.02,2.74-2.02c2.02,0,2.45,2.16,4.03,3.02c1.44,0.86,3.31,1.01,4.9,0.58
			c0.86-0.14,1.58-0.58,2.3-1.01c0.72-0.58,1.01-1.3,1.58-1.87c1.15-1.01,3.02-0.72,4.03,0.29c1.15,1.3,2.02,2.3,3.89,2.59
			c1.58,0.29,3.17,0.14,4.61-0.72c1.44-0.86,2.02-2.74,3.74-3.02C102.1,110.59,103.82,112.18,103.39,113.9z M113.76,101.23
			c-2.74,4.61-7.78,6.77-12.96,6.77c-4.03,0-6.77-1.15-9.65-3.17c-2.88,2.02-5.76,3.17-9.22,3.17c-3.74,0-7.34-1.3-10.37-3.46
			c-5.76,4.18-13.68,3.89-19.44-0.29c-4.61,3.31-10.94,3.89-16.27,1.87c-2.3-0.86-4.46-2.3-6.05-4.18
			c-0.86-0.86-1.73-1.87-0.86-3.17c0.72-1.01,2.45-1.3,3.74-1.15c2.74,0.29,3.6,3.17,5.9,4.18c2.16,1.01,5.04,1.01,7.34,0.14
			c2.16-1.01,2.88-3.6,5.47-3.89c1.01-0.14,2.02,0,2.88,0.43c1.15,0.58,1.58,1.58,2.45,2.45c2.02,2.02,5.18,2.3,7.92,1.58
			c1.44-0.43,2.59-1.15,3.46-2.3c1.01-1.3,2.02-2.02,3.6-2.02c2.88,0,3.6,2.59,5.62,3.89c1.87,1.3,4.32,1.73,6.62,1.15
			c1.01-0.29,1.87-0.72,2.59-1.3c0.86-0.72,1.3-1.87,2.16-2.45c1.44-1.15,3.74-1.15,5.33-0.14c0.86,0.58,1.15,1.44,1.87,2.16
			c0.86,0.86,1.73,1.44,2.88,1.73c2.16,0.58,4.75,0.29,6.62-1.01c1.87-1.44,2.59-3.74,5.33-3.89c1.15,0,2.3,0.43,3.17,1.01
			C114.48,99.65,114.34,100.37,113.76,101.23z M106.39,77.63v10.5c0,3.17-3.51,5.33-6.39,5.47c-1.58,0.14-2.98-0.29-4.28-1.15
			c-1.44-0.86-1.85-2.45-3.15-3.31c-1.01-0.72-2.44-0.72-3.59-0.29c-1.3,0.58-1.58,2.02-2.59,2.88c-2.16,1.87-5.33,2.16-7.92,1.3
			c-1.58-0.58-2.59-1.44-3.6-2.88c-0.86-1.3-2.16-2.02-3.74-1.73c-1.73,0.43-2.16,2.16-3.46,3.17c-1.01,0.86-2.3,1.44-3.6,1.58
			c-2.59,0.43-5.76-0.29-7.49-2.45c-0.86-1.15-1.44-2.16-3.02-2.3c-1.15-0.14-2.45,0.43-3.17,1.3c-1.01,1.3-1.73,2.3-3.31,3.02
			c-1.15,0.43-2.68,0.72-3.97,0.58c-1.87-0.14-5.85-0.72-5.85-3.17V77.63h-8.9l-6.13-6.85l16.47-12.61v-7.91h13.13l0,0L72,37.81
			l49.25,32.87l-4.61,6.95H106.39z"/>
		<rect x="81.91" y="74.8" class="st0" width="11.52" height="10.08"/>
	</g>
	<g>
		<path class="st0" d="M72,0C32.26,0,0,32.26,0,72s32.26,72,72,72s72-32.26,72-72C144,32.4,111.74,0,72,0z M72,139.1
			c-37.01,0-66.96-30.1-66.96-66.96C4.9,35.14,34.99,5.04,72,5.04s66.96,30.1,66.96,66.96C138.96,109.01,108.86,139.1,72,139.1z"/>
	</g>
</g>
<rect class="st1" width="144" height="144"/>
</svg>
