<?xml version="1.0" encoding="utf-8"?>
<!-- Generator: Adobe Illustrator 24.0.1, SVG Export Plug-In . SVG Version: 6.00 Build 0)  -->
<svg version="1.1" id="Layer_1" xmlns="http://www.w3.org/2000/svg"
                                             xmlns:xlink="http://www.w3.org/1999/xlink" x="0px" y="0px"
                                             viewBox="0 0 60 60" style="enable-background:new 0 0 60 60;"
                                             xml:space="preserve">
                                    <style type="text/css">
                                        .st0 {
                                            fill: #C7C7C7;
                                        }
                                    </style>
                                            <g id="consulting_icon_3_" transform="translate(26.3 8.837)">
                                                <g id="Icons_3_" transform="translate(18.88)">
                                                    <path id="Path_8707_3_" class="st0" d="M-15.3,22.8c-0.1,0-0.3,0-0.4-0.1c-0.5-0.2-12.8-5.2-12.8-15.4V-3.9c0-0.4,0.2-0.8,0.6-0.9
                    c7.9-4.3,17.4-4.3,25.3,0C-2.3-4.7-2-4.3-2-3.9V7.3c0,10.2-12.3,15.1-12.8,15.4C-15,22.8-15.2,22.8-15.3,22.8z M-26.4-3.2V7.4
                    c0,7.8,9.1,12.3,11.1,13.1c2-0.9,11.1-5.4,11.1-13.1V-3.2C-11.2-6.7-19.4-6.7-26.4-3.2z"/>
                                                    <path id="Path_8708_3_" class="st0" d="M-17.4,13L-17.4,13c-0.3,0-0.6-0.1-0.8-0.3l-4.2-4.6c-0.4-0.4-0.4-1.1,0.1-1.6
                    c0.4-0.4,1.1-0.4,1.6,0.1c0,0,0,0,0,0l3.5,3.7l7.8-8.3C-9.1,1.7-8.5,1.6-8,2c0.4,0.4,0.4,1.1,0.1,1.6l-8.5,9.2
                    C-16.7,12.9-17.1,13-17.4,13z"/>
                                                </g>
                                                <g id="Title_3_" transform="translate(0 20.566)">
                                                    <g id="Group_5361_3_">
                                                        <path id="Path_8709_3_" class="st0" d="M-24.8,21.4c-0.6,0-1-0.5-1-1V5.4c0-2.5,2-4.5,4.4-4.5c0,0,0,0,0.1,0h2.3
                        c2.5,0,4.5,2,4.5,4.4c0,0,0,0,0,0.1v6.9c0,0,0,0.1,0.1,0.1h0h8c0.9,0,1.8,0.4,2.4,0.9c0.6,0.6,1,1.5,0.9,2.4
                        c0,1.8-1.4,3.3-3.3,3.4c0,0-0.1,0-0.1,0h-13.8c-0.6,0-1-0.5-1-1c0-0.6,0.5-1,1-1h13.7c0.7,0,1.2-0.5,1.2-1.2
                        c0-0.7-0.5-1.2-1.2-1.2c0,0,0,0,0,0h-8c-1.2,0-2.2-1-2.2-2.2V5.5c0-1.3-1-2.3-2.3-2.3c0,0,0,0,0,0h-2.2c-1.3,0-2.3,1-2.3,2.3
                        c0,0,0,0,0,0v14.9C-23.8,20.9-24.3,21.3-24.8,21.4z"/>
                                                        <path id="Path_8710_3_" class="st0" d="M32.4,21.4c-0.6,0-1-0.5-1-1V5.4c0-1.3-1-2.3-2.3-2.3c0,0,0,0,0,0h-2.3
                        c-1.3,0-2.3,1-2.3,2.3c0,0,0,0,0,0v6.9c0,1.2-1,2.2-2.2,2.2h-8c-0.7,0-1.2,0.5-1.2,1.2c0,0,0,0,0,0.1c0,0.7,0.5,1.2,1.2,1.2
                        c0,0,0,0,0.1,0h13.7c0.6,0,1,0.5,1,1s-0.5,1-1,1c0,0,0,0,0,0H14.1c-0.9,0-1.8-0.4-2.4-0.9c-1.3-1.4-1.3-3.5,0.1-4.8
                        c0.6-0.6,1.4-0.9,2.3-0.9h8c0,0,0.1,0,0.1-0.1V5.3c0-2.5,2-4.5,4.4-4.5c0,0,0,0,0.1,0H29c2.5,0,4.5,2,4.5,4.4c0,0,0,0,0,0.1v14.9
                        C33.6,20.8,33.1,21.4,32.4,21.4C32.4,21.4,32.4,21.4,32.4,21.4z"/>
                                                        <path id="Path_8711_3_" class="st0" d="M-20.7,0.7C-23.5,0.7-26-1.8-26-5s2.3-5.8,5.3-5.8s5.3,2.6,5.3,5.8S-17.8,0.7-20.7,0.7z
                         M-20.7-8.7c-1.7,0-3.1,1.6-3.1,3.6s1.4,3.6,3.1,3.6c1.7,0,3.1-1.6,3.1-3.6S-19-8.7-20.7-8.7z"/>
                                                        <path id="Path_8712_3_" class="st0" d="M28.2,0.7c-2.8,0-5.3-2.6-5.3-5.8s2.3-5.8,5.3-5.8c2.8,0,5.3,2.6,5.3,5.8S31,0.7,28.2,0.7
                        z M28.2-8.7c-1.7,0-3.1,1.6-3.1,3.6s1.4,3.6,3.1,3.6s3.1-1.6,3.1-3.6S29.8-8.7,28.2-8.7z"/>
                                                        <path id="Path_8713_3_" class="st0" d="M21.7,28.3H-14c-0.2,0-0.5,0-0.7-0.1c-1.1-0.4-1.8-1.6-1.4-2.7c0,0,0-0.1,0-0.1l2.6-7.7
                        l2.1,0.7L-14,26v0.1h35.8c0,0,0.1,0,0.1-0.1l-2.6-7.7l2.1-0.7l2.6,7.7C24,25.6,24,25.8,24,26C23.9,27.3,22.9,28.2,21.7,28.3z"/>
                                                        <path id="Path_8714_3_" class="st0" d="M-10.1,13.8l-2.1-0.7l2.1-6.1C-9.8,6-9,5.4-8,5.4h23.6c1,0,1.8,0.6,2.1,1.6l2.1,6.1
                        l-2.1,0.7l-2.1-6.1L-8.1,7.6L-10.1,13.8z"/>
                                                    </g>
                                                </g>
                                            </g>
                                    </svg>
