<?xml version="1.0" encoding="utf-8"?>
<!-- Generator: Adobe Illustrator 24.0.1, SVG Export Plug-In . SVG Version: 6.00 Build 0)  -->
<svg version="1.1" id="Layer_1" xmlns="http://www.w3.org/2000/svg"
                                             xmlns:xlink="http://www.w3.org/1999/xlink" x="0px" y="0px"
                                             viewBox="0 0 60 60" style="enable-background:new 0 0 60 60;"
                                             xml:space="preserve">
                                    <style type="text/css">
                                        .st0 {
                                            fill: #C7C7C7;
                                        }
                                    </style>
                                            <path id="Path_7443_4_" class="st0" d="M59.2,40.2c-0.5-0.3-1.1-0.2-1.5,0.3c0,0,0,0,0,0c-1.7,2.4-3.9,3.8-6.3,3.8
        c-0.1,0-0.2,0-0.3,0V34.1l0.3,0.3c0.4,0.4,1.1,0.4,1.5,0c0,0,0,0,0,0l4.2-4.2c0.4-0.4,0.4-1.1,0-1.5c0,0,0,0,0,0l-8.1-8.1V7.2
        c0-0.6-0.5-1.1-1.1-1.1c0,0,0,0,0,0h-6.3c-0.6,0-1.1,0.5-1.1,1.1c0,0,0,0,0,0v4.8l-9.8-9.8c-0.4-0.4-1.1-0.4-1.5,0c0,0,0,0,0,0
        L2.9,28.7c-0.4,0.4-0.4,1.1,0,1.5c0,0,0,0,0,0l4.2,4.2c0.4,0.4,1.1,0.4,1.5,0c0,0,0,0,0,0l0.3-0.3v10.1c-0.1,0-0.2,0-0.3,0l0,0
        c-2.3,0-4.6-1.3-6.3-3.8c-0.3-0.5-1-0.6-1.5-0.2c-0.5,0.3-0.6,1-0.3,1.4c2.1,3,4.9,4.7,8,4.7l0,0c2.8-0.1,5.4-1.4,7.1-3.6
        c1.7,2.2,4.3,3.5,7.1,3.6l0,0c2.8-0.1,5.4-1.4,7.1-3.6c3,3.9,8.6,4.7,12.5,1.8c0.7-0.5,1.3-1.1,1.8-1.8c1.7,2.2,4.3,3.5,7.1,3.6
        c3,0,5.9-1.7,8-4.7C59.8,41.2,59.7,40.5,59.2,40.2C59.2,40.2,59.2,40.2,59.2,40.2z M7.9,32.2l-2.7-2.7L30.1,4.5l10.9,10.9
        c0.4,0.4,1.1,0.4,1.5,0c0.2-0.2,0.3-0.5,0.3-0.7V8.3H47V21c0,0.3,0.1,0.5,0.3,0.7l7.7,7.7l-2.7,2.7L30.8,10.7
        c-0.4-0.4-1.1-0.4-1.5,0c0,0,0,0,0,0L7.9,32.2z M36.4,44.2c-2.3-0.4-4.3-1.8-5.5-3.7c-0.4-0.5-1.1-0.6-1.5-0.2
        c-0.1,0.1-0.1,0.1-0.2,0.2c-1.2,2-3.2,3.3-5.5,3.7V32.6h12.7L36.4,44.2z M49.1,43.7c-1.6-0.7-2.9-1.8-3.9-3.3
        c-0.4-0.5-1.1-0.6-1.5-0.2c-0.1,0.1-0.1,0.1-0.2,0.2c-1.1,1.8-2.9,3.1-5,3.6V31.5c0-0.6-0.5-1.1-1.1-1.1c0,0,0,0,0,0H22.7
        c-0.6,0-1.1,0.5-1.1,1.1c0,0,0,0,0,0v12.5c-2.1-0.5-3.8-1.9-5-3.7c-0.4-0.5-1.1-0.5-1.6-0.1c0,0-0.1,0.1-0.1,0.1
        c-1,1.4-2.3,2.6-3.9,3.3V32l19-19l19,19V43.7z M51.4,51c-2.1,3.6-6.7,4.9-10.3,2.8C40,53.1,39,52.2,38.3,51
        c-0.4-0.5-1.1-0.5-1.5-0.2c-0.1,0.1-0.1,0.1-0.2,0.2c-1.4,2.3-3.9,3.7-6.5,3.8l0,0c-2.6-0.1-5.1-1.5-6.5-3.7
        c-0.4-0.5-1.1-0.6-1.6-0.2c-0.1,0.1-0.1,0.1-0.2,0.2c-1.4,2.2-3.9,3.7-6.5,3.8l0,0c-2.7-0.1-5.1-1.5-6.5-3.8c-0.3-0.5-1-0.6-1.5-0.3
        s-0.6,1-0.3,1.5c0,0,0,0,0,0c2.2,3,5.1,4.7,8.2,4.7h0c2.9-0.1,5.6-1.4,7.4-3.6c1.8,2.2,4.5,3.5,7.4,3.6h0c2.9-0.1,5.6-1.4,7.4-3.6
        c1.8,2.2,4.5,3.5,7.4,3.6c3.1,0,6.1-1.7,8.3-4.7c0.4-0.5,0.3-1.1-0.2-1.5C52.5,50.4,51.8,50.5,51.4,51C51.4,51,51.4,51,51.4,51
        L51.4,51z"/>
                                </svg>
