<svg xmlns="http://www.w3.org/2000/svg" width="227.091" height="227.091" viewBox="0 0 227.091 227.091">
    <defs>
        <style>
            .cls-1{opacity:.7}.cls-2{fill:none;stroke:#fff;stroke-width:.2px}.cls-3{fill:#fff}
        </style>
    </defs>
    <g id="background_graphic" class="cls-1" transform="translate(-2532.311 -1706.312)">
        <path id="Path_7121" d="M0 0h32.1v32.1H0z" class="cls-2" data-name="Path 7121" transform="translate(2629.569 1899.882)"/>
        <path id="Path_7161" d="M0 0h32.1v32.1H0z" class="cls-2" data-name="Path 7161" transform="translate(2629.569 1771.464)"/>
        <path id="Path_7137" d="M0 0h32.1v32.1H0z" class="cls-2" data-name="Path 7137" transform="translate(2629.569 1835.673)"/>
        <path id="Path_7175" d="M0 0h32.1v32.1H0z" class="cls-2" data-name="Path 7175" transform="translate(2629.569 1707.255)"/>
        <path id="Path_7122" d="M0 0h32.1v32.1H0z" class="cls-2" data-name="Path 7122" transform="translate(2629.569 1867.777)"/>
        <path id="Path_7162" d="M0 0h32.1v32.1H0z" class="cls-2" data-name="Path 7162" transform="translate(2629.569 1739.36)"/>
        <path id="Path_7139" d="M0 0h32.1v32.1H0z" class="cls-2" data-name="Path 7139" transform="translate(2629.569 1803.569)"/>
        <path id="Path_7114" d="M0 0h32.1v32.1H0z" class="cls-2" data-name="Path 7114" transform="translate(2565.36 1899.882)"/>
        <path id="Path_7168" d="M0 0h32.1v32.1H0z" class="cls-2" data-name="Path 7168" transform="translate(2565.36 1771.464)"/>
        <path id="Path_7144" d="M0 0h32.1v32.1H0z" class="cls-2" data-name="Path 7144" transform="translate(2565.36 1835.673)"/>
        <path id="Path_7176" d="M0 0h32.1v32.1H0z" class="cls-2" data-name="Path 7176" transform="translate(2565.36 1707.255)"/>
        <path id="Path_7123" d="M0 0h32.1v32.1H0z" class="cls-2" data-name="Path 7123" transform="translate(2565.36 1867.777)"/>
        <path id="Path_7169" d="M0 0h32.1v32.1H0z" class="cls-2" data-name="Path 7169" transform="translate(2565.36 1739.36)"/>
        <path id="Path_7145" d="M0 0h32.1v32.1H0z" class="cls-2" data-name="Path 7145" transform="translate(2565.36 1803.569)"/>
        <path id="Path_7118" d="M0 0h32.1v32.1H0z" class="cls-2" data-name="Path 7118" transform="translate(2693.777 1899.882)"/>
        <path id="Path_7158" d="M0 0h32.1v32.1H0z" class="cls-2" data-name="Path 7158" transform="translate(2693.777 1771.464)"/>
        <path id="Path_7134" d="M0 0h32.1v32.1H0z" class="cls-2" data-name="Path 7134" transform="translate(2693.777 1835.673)"/>
        <path id="Path_7177" d="M0 0h32.1v32.1H0z" class="cls-2" data-name="Path 7177" transform="translate(2693.777 1707.255)"/>
        <path id="Path_7124" d="M0 0h32.1v32.1H0z" class="cls-2" data-name="Path 7124" transform="translate(2693.777 1867.777)"/>
        <path id="Path_7163" d="M0 0h32.1v32.1H0z" class="cls-2" data-name="Path 7163" transform="translate(2693.777 1739.36)"/>
        <path id="Path_7140" d="M0 0h32.1v32.1H0z" class="cls-2" data-name="Path 7140" transform="translate(2693.777 1803.569)"/>
        <path id="Path_7116" d="M0 0h32.1v32.1H0z" class="cls-2" data-name="Path 7116" transform="translate(2533.255 1899.882)"/>
        <path id="Path_7170" d="M0 0h32.1v32.1H0z" class="cls-2" data-name="Path 7170" transform="translate(2533.255 1771.464)"/>
        <path id="Path_7146" d="M0 0h32.1v32.1H0z" class="cls-2" data-name="Path 7146" transform="translate(2533.255 1835.673)"/>
        <path id="Path_7178" d="M0 0h32.1v32.1H0z" class="cls-2" data-name="Path 7178" transform="translate(2533.255 1707.255)"/>
        <path id="Path_7125" d="M0 0h32.1v32.1H0z" class="cls-2" data-name="Path 7125" transform="translate(2533.255 1867.777)"/>
        <path id="Path_7171" d="M0 0h32.1v32.1H0z" class="cls-2" data-name="Path 7171" transform="translate(2533.255 1739.36)"/>
        <path id="Path_7147" d="M0 0h32.1v32.1H0z" class="cls-2" data-name="Path 7147" transform="translate(2533.255 1803.569)"/>
        <path id="Path_7120" d="M0 0h32.1v32.1H0z" class="cls-2" data-name="Path 7120" transform="translate(2661.673 1899.882)"/>
        <path id="Path_7160" d="M0 0h32.1v32.1H0z" class="cls-2" data-name="Path 7160" transform="translate(2661.673 1771.464)"/>
        <path id="Path_7136" d="M0 0h32.1v32.1H0z" class="cls-2" data-name="Path 7136" transform="translate(2661.673 1835.673)"/>
        <path id="Path_7179" d="M0 0h32.1v32.1H0z" class="cls-2" data-name="Path 7179" transform="translate(2661.673 1707.255)"/>
        <path id="Path_7126" d="M0 0h32.1v32.1H0z" class="cls-2" data-name="Path 7126" transform="translate(2661.673 1867.777)"/>
        <path id="Path_7164" d="M0 0h32.1v32.1H0z" class="cls-2" data-name="Path 7164" transform="translate(2661.673 1739.36)"/>
        <path id="Path_7141" d="M0 0h32.1v32.1H0z" class="cls-2" data-name="Path 7141" transform="translate(2661.673 1803.569)"/>
        <path id="Path_7115" d="M0 0h32.1v32.1H0z" class="cls-2" data-name="Path 7115" transform="translate(2597.464 1899.882)"/>
        <path id="Path_7165" d="M0 0h32.1v32.1H0z" class="cls-2" data-name="Path 7165" transform="translate(2597.464 1771.464)"/>
        <path id="Path_7138" d="M0 0h32.1v32.1H0z" class="cls-2" data-name="Path 7138" transform="translate(2597.464 1835.673)"/>
        <path id="Path_7180" d="M0 0h32.1v32.1H0z" class="cls-2" data-name="Path 7180" transform="translate(2597.464 1707.255)"/>
        <path id="Path_7127" d="M0 0h32.1v32.1H0z" class="cls-2" data-name="Path 7127" transform="translate(2597.464 1867.777)"/>
        <path id="Path_7166" d="M0 0h32.1v32.1H0z" class="cls-2" data-name="Path 7166" transform="translate(2597.464 1739.36)"/>
        <path id="Path_7142" d="M0 0h32.1v32.1H0z" class="cls-2" data-name="Path 7142" transform="translate(2597.464 1803.569)"/>
        <path id="Path_7119" d="M0 0h32.1v32.1H0z" class="cls-2" data-name="Path 7119" transform="translate(2725.882 1899.882)"/>
        <path id="Path_7159" d="M0 0h32.1v32.1H0z" class="cls-2" data-name="Path 7159" transform="translate(2725.882 1771.464)"/>
        <path id="Path_7135" d="M0 0h32.1v32.1H0z" class="cls-2" data-name="Path 7135" transform="translate(2725.882 1835.673)"/>
        <path id="Path_7181" d="M0 0h32.1v32.1H0z" class="cls-2" data-name="Path 7181" transform="translate(2725.882 1707.255)"/>
        <path id="Path_7128" d="M0 0h32.1v32.1H0z" class="cls-2" data-name="Path 7128" transform="translate(2725.882 1867.777)"/>
        <path id="Path_7167" d="M0 0h32.1v32.1H0z" class="cls-2" data-name="Path 7167" transform="translate(2725.882 1739.36)"/>
        <path id="Path_7143" d="M0 0h32.1v32.1H0z" class="cls-2" data-name="Path 7143" transform="translate(2725.882 1803.569)"/>
        <path id="Rectangle_2265" d="M0 0h2.361v2.361H0z" class="cls-3" data-name="Rectangle 2265" transform="translate(2628.624 1931.042)"/>
        <path id="Rectangle_2416" d="M0 0h2.361v2.361H0z" class="cls-3" data-name="Rectangle 2416" transform="translate(2628.624 1802.624)"/>
        <path id="Rectangle_2322" d="M0 0h2.361v2.361H0z" class="cls-3" data-name="Rectangle 2322" transform="translate(2628.624 1866.833)"/>
        <path id="Rectangle_2450" d="M0 0h2.361v2.361H0z" class="cls-3" data-name="Rectangle 2450" transform="translate(2628.624 1738.416)"/>
        <path id="Rectangle_2267" d="M0 0h2.361v2.361H0z" class="cls-3" data-name="Rectangle 2267" transform="translate(2628.624 1898.938)"/>
        <path id="Rectangle_2417" d="M0 0h2.361v2.361H0z" class="cls-3" data-name="Rectangle 2417" transform="translate(2628.624 1770.52)"/>
        <path id="Rectangle_2323" d="M0 0h2.361v2.361H0z" class="cls-3" data-name="Rectangle 2323" transform="translate(2628.624 1834.729)"/>
        <path id="Rectangle_2497" d="M0 0h2.361v2.361H0z" class="cls-3" data-name="Rectangle 2497" transform="translate(2628.624 1706.311)"/>
        <path id="Rectangle_2238" d="M0 0h2.361v2.361H0z" class="cls-3" data-name="Rectangle 2238" transform="translate(2564.416 1931.042)"/>
        <path id="Rectangle_2438" d="M0 0h2.361v2.361H0z" class="cls-3" data-name="Rectangle 2438" transform="translate(2564.416 1802.624)"/>
        <path id="Rectangle_2348" d="M0 0h2.361v2.361H0z" class="cls-3" data-name="Rectangle 2348" transform="translate(2564.416 1866.833)"/>
        <path id="Rectangle_2451" d="M0 0h2.361v2.361H0z" class="cls-3" data-name="Rectangle 2451" transform="translate(2564.416 1738.416)"/>
        <path id="Rectangle_2278" d="M0 0h2.361v2.361H0z" class="cls-3" data-name="Rectangle 2278" transform="translate(2564.416 1898.938)"/>
        <path id="Rectangle_2439" d="M0 0h2.361v2.361H0z" class="cls-3" data-name="Rectangle 2439" transform="translate(2564.416 1770.52)"/>
        <path id="Rectangle_2349" d="M0 0h2.361v2.361H0z" class="cls-3" data-name="Rectangle 2349" transform="translate(2564.416 1834.729)"/>
        <path id="Rectangle_2498" d="M0 0h2.361v2.361H0z" class="cls-3" data-name="Rectangle 2498" transform="translate(2564.416 1706.311)"/>
        <path id="Rectangle_2254" d="M0 0h2.361v2.361H0z" class="cls-3" data-name="Rectangle 2254" transform="translate(2692.833 1931.042)"/>
        <path id="Rectangle_2414" d="M0 0h2.361v2.361H0z" class="cls-3" data-name="Rectangle 2414" transform="translate(2692.833 1802.624)"/>
        <path id="Rectangle_2318" d="M0 0h2.361v2.361H0z" class="cls-3" data-name="Rectangle 2318" transform="translate(2692.833 1866.833)"/>
        <path id="Rectangle_2452" d="M0 0h2.361v2.361H0z" class="cls-3" data-name="Rectangle 2452" transform="translate(2692.833 1738.416)"/>
        <path id="Rectangle_2268" d="M0 0h2.361v2.361H0z" class="cls-3" data-name="Rectangle 2268" transform="translate(2692.833 1898.938)"/>
        <path id="Rectangle_2418" d="M0 0h2.361v2.361H0z" class="cls-3" data-name="Rectangle 2418" transform="translate(2692.833 1770.52)"/>
        <path id="Rectangle_2324" d="M0 0h2.361v2.361H0z" class="cls-3" data-name="Rectangle 2324" transform="translate(2692.833 1834.729)"/>
        <path id="Rectangle_2499" d="M0 0h2.361v2.361H0z" class="cls-3" data-name="Rectangle 2499" transform="translate(2692.833 1706.311)"/>
        <path id="Rectangle_2240" d="M0 0h2.361v2.361H0z" class="cls-3" data-name="Rectangle 2240" transform="translate(2532.311 1931.042)"/>
        <path id="Rectangle_2453" d="M0 0h2.361v2.361H0z" class="cls-3" data-name="Rectangle 2453" transform="translate(2532.311 1802.624)"/>
        <path id="Rectangle_2354" d="M0 0h2.361v2.361H0z" class="cls-3" data-name="Rectangle 2354" transform="translate(2532.311 1866.833)"/>
        <path id="Rectangle_2454" d="M0 0h2.361v2.361H0z" class="cls-3" data-name="Rectangle 2454" transform="translate(2532.311 1738.416)"/>
        <path id="Rectangle_2280" d="M0 0h2.361v2.361H0z" class="cls-3" data-name="Rectangle 2280" transform="translate(2532.311 1898.938)"/>
        <path id="Rectangle_2455" d="M0 0h2.361v2.361H0z" class="cls-3" data-name="Rectangle 2455" transform="translate(2532.311 1770.52)"/>
        <path id="Rectangle_2355" d="M0 0h2.361v2.361H0z" class="cls-3" data-name="Rectangle 2355" transform="translate(2532.311 1834.729)"/>
        <path id="Rectangle_2500" d="M0 0h2.361v2.361H0z" class="cls-3" data-name="Rectangle 2500" transform="translate(2532.311 1706.311)"/>
        <path id="Rectangle_2256" d="M0 0h2.361v2.361H0z" class="cls-3" data-name="Rectangle 2256" transform="translate(2660.729 1931.042)"/>
        <path id="Rectangle_2419" d="M0 0h2.361v2.361H0z" class="cls-3" data-name="Rectangle 2419" transform="translate(2660.729 1802.624)"/>
        <path id="Rectangle_2320" d="M0 0h2.361v2.361H0z" class="cls-3" data-name="Rectangle 2320" transform="translate(2660.729 1866.833)"/>
        <path id="Rectangle_2456" d="M0 0h2.361v2.361H0z" class="cls-3" data-name="Rectangle 2456" transform="translate(2660.729 1738.416)"/>
        <path id="Rectangle_2269" d="M0 0h2.361v2.361H0z" class="cls-3" data-name="Rectangle 2269" transform="translate(2660.729 1898.938)"/>
        <path id="Rectangle_2420" d="M0 0h2.361v2.361H0z" class="cls-3" data-name="Rectangle 2420" transform="translate(2660.729 1770.52)"/>
        <path id="Rectangle_2325" d="M0 0h2.361v2.361H0z" class="cls-3" data-name="Rectangle 2325" transform="translate(2660.729 1834.729)"/>
        <path id="Rectangle_2501" d="M0 0h2.361v2.361H0z" class="cls-3" data-name="Rectangle 2501" transform="translate(2660.729 1706.311)"/>
        <path id="Rectangle_2235" d="M0 0h2.361v2.361H0z" class="cls-3" data-name="Rectangle 2235" transform="translate(2596.52 1931.042)"/>
        <path id="Rectangle_2440" d="M0 0h2.361v2.361H0z" class="cls-3" data-name="Rectangle 2440" transform="translate(2596.52 1802.624)"/>
        <path id="Rectangle_2342" d="M0 0h2.361v2.361H0z" class="cls-3" data-name="Rectangle 2342" transform="translate(2596.52 1866.833)"/>
        <path id="Rectangle_2457" d="M0 0h2.361v2.361H0z" class="cls-3" data-name="Rectangle 2457" transform="translate(2596.52 1738.416)"/>
        <path id="Rectangle_2270" d="M0 0h2.361v2.361H0z" class="cls-3" data-name="Rectangle 2270" transform="translate(2596.52 1898.938)"/>
        <path id="Rectangle_2441" d="M0 0h2.361v2.361H0z" class="cls-3" data-name="Rectangle 2441" transform="translate(2596.52 1770.52)"/>
        <path id="Rectangle_2343" d="M0 0h2.361v2.361H0z" class="cls-3" data-name="Rectangle 2343" transform="translate(2596.52 1834.729)"/>
        <path id="Rectangle_2506" d="M0 0h2.361v2.361H0z" class="cls-3" data-name="Rectangle 2506" transform="translate(2596.52 1706.311)"/>
        <path id="Rectangle_2251" d="M0 0h2.361v2.361H0z" class="cls-3" data-name="Rectangle 2251" transform="translate(2724.938 1931.042)"/>
        <path id="Rectangle_2411" d="M0 0h2.361v2.361H0z" class="cls-3" data-name="Rectangle 2411" transform="translate(2724.938 1802.624)"/>
        <path id="Rectangle_2315" d="M0 0h2.361v2.361H0z" class="cls-3" data-name="Rectangle 2315" transform="translate(2724.938 1866.833)"/>
        <path id="Rectangle_2458" d="M0 0h2.361v2.361H0z" class="cls-3" data-name="Rectangle 2458" transform="translate(2724.938 1738.416)"/>
        <path id="Rectangle_2271" d="M0 0h2.361v2.361H0z" class="cls-3" data-name="Rectangle 2271" transform="translate(2724.938 1898.938)"/>
        <path id="Rectangle_2421" d="M0 0h2.361v2.361H0z" class="cls-3" data-name="Rectangle 2421" transform="translate(2724.938 1770.52)"/>
        <path id="Rectangle_2326" d="M0 0h2.361v2.361H0z" class="cls-3" data-name="Rectangle 2326" transform="translate(2724.938 1834.729)"/>
        <path id="Rectangle_2507" d="M0 0h2.361v2.361H0z" class="cls-3" data-name="Rectangle 2507" transform="translate(2724.938 1706.311)"/>
        <path id="Rectangle_2266" d="M0 0h2.361v2.361H0z" class="cls-3" data-name="Rectangle 2266" transform="translate(2628.624 1898.938)"/>
        <path id="Rectangle_2422" d="M0 0h2.361v2.361H0z" class="cls-3" data-name="Rectangle 2422" transform="translate(2628.624 1770.52)"/>
        <path id="Rectangle_2327" d="M0 0h2.361v2.361H0z" class="cls-3" data-name="Rectangle 2327" transform="translate(2628.624 1834.729)"/>
        <path id="Rectangle_2509" d="M0 0h2.361v2.361H0z" class="cls-3" data-name="Rectangle 2509" transform="translate(2628.624 1706.311)"/>
        <path id="Rectangle_2287" d="M0 0h2.361v2.361H0z" class="cls-3" data-name="Rectangle 2287" transform="translate(2628.624 1866.833)"/>
        <path id="Rectangle_2459" d="M0 0h2.361v2.361H0z" class="cls-3" data-name="Rectangle 2459" transform="translate(2628.624 1738.416)"/>
        <path id="Rectangle_2360" d="M0 0h2.361v2.361H0z" class="cls-3" data-name="Rectangle 2360" transform="translate(2628.624 1802.624)"/>
        <path id="Rectangle_2242" d="M0 0h2.361v2.361H0z" class="cls-3" data-name="Rectangle 2242" transform="translate(2564.416 1898.938)"/>
        <path id="Rectangle_2442" d="M0 0h2.361v2.361H0z" class="cls-3" data-name="Rectangle 2442" transform="translate(2564.416 1770.52)"/>
        <path id="Rectangle_2350" d="M0 0h2.361v2.361H0z" class="cls-3" data-name="Rectangle 2350" transform="translate(2564.416 1834.729)"/>
        <path id="Rectangle_2510" d="M0 0h2.361v2.361H0z" class="cls-3" data-name="Rectangle 2510" transform="translate(2564.416 1706.311)"/>
        <path id="Rectangle_2288" d="M0 0h2.361v2.361H0z" class="cls-3" data-name="Rectangle 2288" transform="translate(2564.416 1866.833)"/>
        <path id="Rectangle_2460" d="M0 0h2.361v2.361H0z" class="cls-3" data-name="Rectangle 2460" transform="translate(2564.416 1738.416)"/>
        <path id="Rectangle_2361" d="M0 0h2.361v2.361H0z" class="cls-3" data-name="Rectangle 2361" transform="translate(2564.416 1802.624)"/>
        <path id="Rectangle_2258" d="M0 0h2.361v2.361H0z" class="cls-3" data-name="Rectangle 2258" transform="translate(2692.833 1898.938)"/>
        <path id="Rectangle_2423" d="M0 0h2.361v2.361H0z" class="cls-3" data-name="Rectangle 2423" transform="translate(2692.833 1770.52)"/>
        <path id="Rectangle_2328" d="M0 0h2.361v2.361H0z" class="cls-3" data-name="Rectangle 2328" transform="translate(2692.833 1834.729)"/>
        <path id="Rectangle_2511" d="M0 0h2.361v2.361H0z" class="cls-3" data-name="Rectangle 2511" transform="translate(2692.833 1706.311)"/>
        <path id="Rectangle_2289" d="M0 0h2.361v2.361H0z" class="cls-3" data-name="Rectangle 2289" transform="translate(2692.833 1866.833)"/>
        <path id="Rectangle_2461" d="M0 0h2.361v2.361H0z" class="cls-3" data-name="Rectangle 2461" transform="translate(2692.833 1738.416)"/>
        <path id="Rectangle_2362" d="M0 0h2.361v2.361H0z" class="cls-3" data-name="Rectangle 2362" transform="translate(2692.833 1802.624)"/>
        <path id="Rectangle_2243" d="M0 0h2.361v2.361H0z" class="cls-3" data-name="Rectangle 2243" transform="translate(2532.311 1898.938)"/>
        <path id="Rectangle_2462" d="M0 0h2.361v2.361H0z" class="cls-3" data-name="Rectangle 2462" transform="translate(2532.311 1770.52)"/>
        <path id="Rectangle_2356" d="M0 0h2.361v2.361H0z" class="cls-3" data-name="Rectangle 2356" transform="translate(2532.311 1834.729)"/>
        <path id="Rectangle_2512" d="M0 0h2.361v2.361H0z" class="cls-3" data-name="Rectangle 2512" transform="translate(2532.311 1706.311)"/>
        <path id="Rectangle_2290" d="M0 0h2.361v2.361H0z" class="cls-3" data-name="Rectangle 2290" transform="translate(2532.311 1866.833)"/>
        <path id="Rectangle_2463" d="M0 0h2.361v2.361H0z" class="cls-3" data-name="Rectangle 2463" transform="translate(2532.311 1738.416)"/>
        <path id="Rectangle_2363" d="M0 0h2.361v2.361H0z" class="cls-3" data-name="Rectangle 2363" transform="translate(2532.311 1802.624)"/>
        <path id="Rectangle_2259" d="M0 0h2.361v2.361H0z" class="cls-3" data-name="Rectangle 2259" transform="translate(2660.729 1898.938)"/>
        <path id="Rectangle_2424" d="M0 0h2.361v2.361H0z" class="cls-3" data-name="Rectangle 2424" transform="translate(2660.729 1770.52)"/>
        <path id="Rectangle_2329" d="M0 0h2.361v2.361H0z" class="cls-3" data-name="Rectangle 2329" transform="translate(2660.729 1834.729)"/>
        <path id="Rectangle_2513" d="M0 0h2.361v2.361H0z" class="cls-3" data-name="Rectangle 2513" transform="translate(2660.729 1706.311)"/>
        <path id="Rectangle_2291" d="M0 0h2.361v2.361H0z" class="cls-3" data-name="Rectangle 2291" transform="translate(2660.729 1866.833)"/>
        <path id="Rectangle_2464" d="M0 0h2.361v2.361H0z" class="cls-3" data-name="Rectangle 2464" transform="translate(2660.729 1738.416)"/>
        <path id="Rectangle_2364" d="M0 0h2.361v2.361H0z" class="cls-3" data-name="Rectangle 2364" transform="translate(2660.729 1802.624)"/>
        <path id="Rectangle_2244" d="M0 0h2.361v2.361H0z" class="cls-3" data-name="Rectangle 2244" transform="translate(2596.52 1898.938)"/>
        <path id="Rectangle_2443" d="M0 0h2.361v2.361H0z" class="cls-3" data-name="Rectangle 2443" transform="translate(2596.52 1770.52)"/>
        <path id="Rectangle_2344" d="M0 0h2.361v2.361H0z" class="cls-3" data-name="Rectangle 2344" transform="translate(2596.52 1834.729)"/>
        <path id="Rectangle_2517" d="M0 0h2.361v2.361H0z" class="cls-3" data-name="Rectangle 2517" transform="translate(2596.52 1706.311)"/>
        <path id="Rectangle_2293" d="M0 0h2.361v2.361H0z" class="cls-3" data-name="Rectangle 2293" transform="translate(2596.52 1866.833)"/>
        <path id="Rectangle_2465" d="M0 0h2.361v2.361H0z" class="cls-3" data-name="Rectangle 2465" transform="translate(2596.52 1738.416)"/>
        <path id="Rectangle_2365" d="M0 0h2.361v2.361H0z" class="cls-3" data-name="Rectangle 2365" transform="translate(2596.52 1802.624)"/>
        <path id="Rectangle_2260" d="M0 0h2.361v2.361H0z" class="cls-3" data-name="Rectangle 2260" transform="translate(2724.938 1898.938)"/>
        <path id="Rectangle_2425" d="M0 0h2.361v2.361H0z" class="cls-3" data-name="Rectangle 2425" transform="translate(2724.938 1770.52)"/>
        <path id="Rectangle_2330" d="M0 0h2.361v2.361H0z" class="cls-3" data-name="Rectangle 2330" transform="translate(2724.938 1834.729)"/>
        <path id="Rectangle_2518" d="M0 0h2.361v2.361H0z" class="cls-3" data-name="Rectangle 2518" transform="translate(2724.938 1706.311)"/>
        <path id="Rectangle_2294" d="M0 0h2.361v2.361H0z" class="cls-3" data-name="Rectangle 2294" transform="translate(2724.938 1866.833)"/>
        <path id="Rectangle_2466" d="M0 0h2.361v2.361H0z" class="cls-3" data-name="Rectangle 2466" transform="translate(2724.938 1738.416)"/>
        <path id="Rectangle_2366" d="M0 0h2.361v2.361H0z" class="cls-3" data-name="Rectangle 2366" transform="translate(2724.938 1802.624)"/>
        <path id="Rectangle_2241" d="M0 0h2.361v2.361H0z" class="cls-3" data-name="Rectangle 2241" transform="translate(2532.311 1931.042)"/>
        <path id="Rectangle_2467" d="M0 0h2.361v2.361H0z" class="cls-3" data-name="Rectangle 2467" transform="translate(2532.311 1802.624)"/>
        <path id="Rectangle_2357" d="M0 0h2.361v2.361H0z" class="cls-3" data-name="Rectangle 2357" transform="translate(2532.311 1866.833)"/>
        <path id="Rectangle_2468" d="M0 0h2.361v2.361H0z" class="cls-3" data-name="Rectangle 2468" transform="translate(2532.311 1738.416)"/>
        <path id="Rectangle_2281" d="M0 0h2.361v2.361H0z" class="cls-3" data-name="Rectangle 2281" transform="translate(2532.311 1898.938)"/>
        <path id="Rectangle_2469" d="M0 0h2.361v2.361H0z" class="cls-3" data-name="Rectangle 2469" transform="translate(2532.311 1770.52)"/>
        <path id="Rectangle_2358" d="M0 0h2.361v2.361H0z" class="cls-3" data-name="Rectangle 2358" transform="translate(2532.311 1834.729)"/>
        <path id="Rectangle_2519" d="M0 0h2.361v2.361H0z" class="cls-3" data-name="Rectangle 2519" transform="translate(2532.311 1706.311)"/>
        <path id="Rectangle_2257" d="M0 0h2.361v2.361H0z" class="cls-3" data-name="Rectangle 2257" transform="translate(2660.729 1931.042)"/>
        <path id="Rectangle_2426" d="M0 0h2.361v2.361H0z" class="cls-3" data-name="Rectangle 2426" transform="translate(2660.729 1802.624)"/>
        <path id="Rectangle_2321" d="M0 0h2.361v2.361H0z" class="cls-3" data-name="Rectangle 2321" transform="translate(2660.729 1866.833)"/>
        <path id="Rectangle_2470" d="M0 0h2.361v2.361H0z" class="cls-3" data-name="Rectangle 2470" transform="translate(2660.729 1738.416)"/>
        <path id="Rectangle_2272" d="M0 0h2.361v2.361H0z" class="cls-3" data-name="Rectangle 2272" transform="translate(2660.729 1898.938)"/>
        <path id="Rectangle_2427" d="M0 0h2.361v2.361H0z" class="cls-3" data-name="Rectangle 2427" transform="translate(2660.729 1770.52)"/>
        <path id="Rectangle_2331" d="M0 0h2.361v2.361H0z" class="cls-3" data-name="Rectangle 2331" transform="translate(2660.729 1834.729)"/>
        <path id="Rectangle_2520" d="M0 0h2.361v2.361H0z" class="cls-3" data-name="Rectangle 2520" transform="translate(2660.729 1706.311)"/>
        <path id="Rectangle_2236" d="M0 0h2.361v2.361H0z" class="cls-3" data-name="Rectangle 2236" transform="translate(2596.52 1931.042)"/>
        <path id="Rectangle_2444" d="M0 0h2.361v2.361H0z" class="cls-3" data-name="Rectangle 2444" transform="translate(2596.52 1802.624)"/>
        <path id="Rectangle_2345" d="M0 0h2.361v2.361H0z" class="cls-3" data-name="Rectangle 2345" transform="translate(2596.52 1866.833)"/>
        <path id="Rectangle_2471" d="M0 0h2.361v2.361H0z" class="cls-3" data-name="Rectangle 2471" transform="translate(2596.52 1738.416)"/>
        <path id="Rectangle_2273" d="M0 0h2.361v2.361H0z" class="cls-3" data-name="Rectangle 2273" transform="translate(2596.52 1898.938)"/>
        <path id="Rectangle_2445" d="M0 0h2.361v2.361H0z" class="cls-3" data-name="Rectangle 2445" transform="translate(2596.52 1770.52)"/>
        <path id="Rectangle_2346" d="M0 0h2.361v2.361H0z" class="cls-3" data-name="Rectangle 2346" transform="translate(2596.52 1834.729)"/>
        <path id="Rectangle_2525" d="M0 0h2.361v2.361H0z" class="cls-3" data-name="Rectangle 2525" transform="translate(2596.52 1706.311)"/>
        <path id="Rectangle_2252" d="M0 0h2.361v2.361H0z" class="cls-3" data-name="Rectangle 2252" transform="translate(2724.938 1931.042)"/>
        <path id="Rectangle_2412" d="M0 0h2.361v2.361H0z" class="cls-3" data-name="Rectangle 2412" transform="translate(2724.938 1802.624)"/>
        <path id="Rectangle_2316" d="M0 0h2.361v2.361H0z" class="cls-3" data-name="Rectangle 2316" transform="translate(2724.938 1866.833)"/>
        <path id="Rectangle_2472" d="M0 0h2.361v2.361H0z" class="cls-3" data-name="Rectangle 2472" transform="translate(2724.938 1738.416)"/>
        <path id="Rectangle_2274" d="M0 0h2.361v2.361H0z" class="cls-3" data-name="Rectangle 2274" transform="translate(2724.938 1898.938)"/>
        <path id="Rectangle_2428" d="M0 0h2.361v2.361H0z" class="cls-3" data-name="Rectangle 2428" transform="translate(2724.938 1770.52)"/>
        <path id="Rectangle_2332" d="M0 0h2.361v2.361H0z" class="cls-3" data-name="Rectangle 2332" transform="translate(2724.938 1834.729)"/>
        <path id="Rectangle_2526" d="M0 0h2.361v2.361H0z" class="cls-3" data-name="Rectangle 2526" transform="translate(2724.938 1706.311)"/>
        <path id="Rectangle_2239" d="M0 0h2.361v2.361H0z" class="cls-3" data-name="Rectangle 2239" transform="translate(2564.416 1931.042)"/>
        <path id="Rectangle_2446" d="M0 0h2.361v2.361H0z" class="cls-3" data-name="Rectangle 2446" transform="translate(2564.416 1802.624)"/>
        <path id="Rectangle_2351" d="M0 0h2.361v2.361H0z" class="cls-3" data-name="Rectangle 2351" transform="translate(2564.416 1866.833)"/>
        <path id="Rectangle_2473" d="M0 0h2.361v2.361H0z" class="cls-3" data-name="Rectangle 2473" transform="translate(2564.416 1738.416)"/>
        <path id="Rectangle_2279" d="M0 0h2.361v2.361H0z" class="cls-3" data-name="Rectangle 2279" transform="translate(2564.416 1898.938)"/>
        <path id="Rectangle_2447" d="M0 0h2.361v2.361H0z" class="cls-3" data-name="Rectangle 2447" transform="translate(2564.416 1770.52)"/>
        <path id="Rectangle_2352" d="M0 0h2.361v2.361H0z" class="cls-3" data-name="Rectangle 2352" transform="translate(2564.416 1834.729)"/>
        <path id="Rectangle_2527" d="M0 0h2.361v2.361H0z" class="cls-3" data-name="Rectangle 2527" transform="translate(2564.416 1706.311)"/>
        <path id="Rectangle_2255" d="M0 0h2.361v2.361H0z" class="cls-3" data-name="Rectangle 2255" transform="translate(2692.833 1931.042)"/>
        <path id="Rectangle_2415" d="M0 0h2.361v2.361H0z" class="cls-3" data-name="Rectangle 2415" transform="translate(2692.833 1802.624)"/>
        <path id="Rectangle_2319" d="M0 0h2.361v2.361H0z" class="cls-3" data-name="Rectangle 2319" transform="translate(2692.833 1866.833)"/>
        <path id="Rectangle_2474" d="M0 0h2.361v2.361H0z" class="cls-3" data-name="Rectangle 2474" transform="translate(2692.833 1738.416)"/>
        <path id="Rectangle_2275" d="M0 0h2.361v2.361H0z" class="cls-3" data-name="Rectangle 2275" transform="translate(2692.833 1898.938)"/>
        <path id="Rectangle_2429" d="M0 0h2.361v2.361H0z" class="cls-3" data-name="Rectangle 2429" transform="translate(2692.833 1770.52)"/>
        <path id="Rectangle_2333" d="M0 0h2.361v2.361H0z" class="cls-3" data-name="Rectangle 2333" transform="translate(2692.833 1834.729)"/>
        <path id="Rectangle_2528" d="M0 0h2.361v2.361H0z" class="cls-3" data-name="Rectangle 2528" transform="translate(2692.833 1706.311)"/>
        <path id="Rectangle_2237" d="M0 0h2.361v2.361H0z" class="cls-3" data-name="Rectangle 2237" transform="translate(2628.624 1931.042)"/>
        <path id="Rectangle_2430" d="M0 0h2.361v2.361H0z" class="cls-3" data-name="Rectangle 2430" transform="translate(2628.624 1802.624)"/>
        <path id="Rectangle_2334" d="M0 0h2.361v2.361H0z" class="cls-3" data-name="Rectangle 2334" transform="translate(2628.624 1866.833)"/>
        <path id="Rectangle_2475" d="M0 0h2.361v2.361H0z" class="cls-3" data-name="Rectangle 2475" transform="translate(2628.624 1738.416)"/>
        <path id="Rectangle_2276" d="M0 0h2.361v2.361H0z" class="cls-3" data-name="Rectangle 2276" transform="translate(2628.624 1898.938)"/>
        <path id="Rectangle_2431" d="M0 0h2.361v2.361H0z" class="cls-3" data-name="Rectangle 2431" transform="translate(2628.624 1770.52)"/>
        <path id="Rectangle_2335" d="M0 0h2.361v2.361H0z" class="cls-3" data-name="Rectangle 2335" transform="translate(2628.624 1834.729)"/>
        <path id="Rectangle_2530" d="M0 0h2.361v2.361H0z" class="cls-3" data-name="Rectangle 2530" transform="translate(2628.624 1706.311)"/>
        <path id="Rectangle_2253" d="M0 0h2.361v2.361H0z" class="cls-3" data-name="Rectangle 2253" transform="translate(2757.042 1931.042)"/>
        <path id="Rectangle_2413" d="M0 0h2.361v2.361H0z" class="cls-3" data-name="Rectangle 2413" transform="translate(2757.042 1802.624)"/>
        <path id="Rectangle_2317" d="M0 0h2.361v2.361H0z" class="cls-3" data-name="Rectangle 2317" transform="translate(2757.042 1866.833)"/>
        <path id="Rectangle_2476" d="M0 0h2.361v2.361H0z" class="cls-3" data-name="Rectangle 2476" transform="translate(2757.042 1738.416)"/>
        <path id="Rectangle_2277" d="M0 0h2.361v2.361H0z" class="cls-3" data-name="Rectangle 2277" transform="translate(2757.042 1898.938)"/>
        <path id="Rectangle_2432" d="M0 0h2.361v2.361H0z" class="cls-3" data-name="Rectangle 2432" transform="translate(2757.042 1770.52)"/>
        <path id="Rectangle_2336" d="M0 0h2.361v2.361H0z" class="cls-3" data-name="Rectangle 2336" transform="translate(2757.042 1834.729)"/>
        <path id="Rectangle_2531" d="M0 0h2.361v2.361H0z" class="cls-3" data-name="Rectangle 2531" transform="translate(2757.042 1706.311)"/>
        <path id="Rectangle_2245" d="M0 0h2.361v2.361H0z" class="cls-3" data-name="Rectangle 2245" transform="translate(2532.311 1898.938)"/>
        <path id="Rectangle_2477" d="M0 0h2.361v2.361H0z" class="cls-3" data-name="Rectangle 2477" transform="translate(2532.311 1770.52)"/>
        <path id="Rectangle_2359" d="M0 0h2.361v2.361H0z" class="cls-3" data-name="Rectangle 2359" transform="translate(2532.311 1834.729)"/>
        <path id="Rectangle_2532" d="M0 0h2.361v2.361H0z" class="cls-3" data-name="Rectangle 2532" transform="translate(2532.311 1706.311)"/>
        <path id="Rectangle_2295" d="M0 0h2.361v2.361H0z" class="cls-3" data-name="Rectangle 2295" transform="translate(2532.311 1866.833)"/>
        <path id="Rectangle_2478" d="M0 0h2.361v2.361H0z" class="cls-3" data-name="Rectangle 2478" transform="translate(2532.311 1738.416)"/>
        <path id="Rectangle_2367" d="M0 0h2.361v2.361H0z" class="cls-3" data-name="Rectangle 2367" transform="translate(2532.311 1802.624)"/>
        <path id="Rectangle_2261" d="M0 0h2.361v2.361H0z" class="cls-3" data-name="Rectangle 2261" transform="translate(2660.729 1898.938)"/>
        <path id="Rectangle_2433" d="M0 0h2.361v2.361H0z" class="cls-3" data-name="Rectangle 2433" transform="translate(2660.729 1770.52)"/>
        <path id="Rectangle_2337" d="M0 0h2.361v2.361H0z" class="cls-3" data-name="Rectangle 2337" transform="translate(2660.729 1834.729)"/>
        <path id="Rectangle_2533" d="M0 0h2.361v2.361H0z" class="cls-3" data-name="Rectangle 2533" transform="translate(2660.729 1706.311)"/>
        <path id="Rectangle_2296" d="M0 0h2.361v2.361H0z" class="cls-3" data-name="Rectangle 2296" transform="translate(2660.729 1866.833)"/>
        <path id="Rectangle_2479" d="M0 0h2.361v2.361H0z" class="cls-3" data-name="Rectangle 2479" transform="translate(2660.729 1738.416)"/>
        <path id="Rectangle_2368" d="M0 0h2.361v2.361H0z" class="cls-3" data-name="Rectangle 2368" transform="translate(2660.729 1802.624)"/>
        <path id="Rectangle_2246" d="M0 0h2.361v2.361H0z" class="cls-3" data-name="Rectangle 2246" transform="translate(2596.52 1898.938)"/>
        <path id="Rectangle_2448" d="M0 0h2.361v2.361H0z" class="cls-3" data-name="Rectangle 2448" transform="translate(2596.52 1770.52)"/>
        <path id="Rectangle_2347" d="M0 0h2.361v2.361H0z" class="cls-3" data-name="Rectangle 2347" transform="translate(2596.52 1834.729)"/>
        <path id="Rectangle_2537" d="M0 0h2.361v2.361H0z" class="cls-3" data-name="Rectangle 2537" transform="translate(2596.52 1706.311)"/>
        <path id="Rectangle_2298" d="M0 0h2.361v2.361H0z" class="cls-3" data-name="Rectangle 2298" transform="translate(2596.52 1866.833)"/>
        <path id="Rectangle_2480" d="M0 0h2.361v2.361H0z" class="cls-3" data-name="Rectangle 2480" transform="translate(2596.52 1738.416)"/>
        <path id="Rectangle_2369" d="M0 0h2.361v2.361H0z" class="cls-3" data-name="Rectangle 2369" transform="translate(2596.52 1802.624)"/>
        <path id="Rectangle_2262" d="M0 0h2.361v2.361H0z" class="cls-3" data-name="Rectangle 2262" transform="translate(2724.938 1898.938)"/>
        <path id="Rectangle_2434" d="M0 0h2.361v2.361H0z" class="cls-3" data-name="Rectangle 2434" transform="translate(2724.938 1770.52)"/>
        <path id="Rectangle_2338" d="M0 0h2.361v2.361H0z" class="cls-3" data-name="Rectangle 2338" transform="translate(2724.938 1834.729)"/>
        <path id="Rectangle_2538" d="M0 0h2.361v2.361H0z" class="cls-3" data-name="Rectangle 2538" transform="translate(2724.938 1706.311)"/>
        <path id="Rectangle_2299" d="M0 0h2.361v2.361H0z" class="cls-3" data-name="Rectangle 2299" transform="translate(2724.938 1866.833)"/>
        <path id="Rectangle_2481" d="M0 0h2.361v2.361H0z" class="cls-3" data-name="Rectangle 2481" transform="translate(2724.938 1738.416)"/>
        <path id="Rectangle_2370" d="M0 0h2.361v2.361H0z" class="cls-3" data-name="Rectangle 2370" transform="translate(2724.938 1802.624)"/>
        <path id="Rectangle_2247" d="M0 0h2.361v2.361H0z" class="cls-3" data-name="Rectangle 2247" transform="translate(2564.416 1898.938)"/>
        <path id="Rectangle_2449" d="M0 0h2.361v2.361H0z" class="cls-3" data-name="Rectangle 2449" transform="translate(2564.416 1770.52)"/>
        <path id="Rectangle_2353" d="M0 0h2.361v2.361H0z" class="cls-3" data-name="Rectangle 2353" transform="translate(2564.416 1834.729)"/>
        <path id="Rectangle_2539" d="M0 0h2.361v2.361H0z" class="cls-3" data-name="Rectangle 2539" transform="translate(2564.416 1706.311)"/>
        <path id="Rectangle_2300" d="M0 0h2.361v2.361H0z" class="cls-3" data-name="Rectangle 2300" transform="translate(2564.416 1866.833)"/>
        <path id="Rectangle_2482" d="M0 0h2.361v2.361H0z" class="cls-3" data-name="Rectangle 2482" transform="translate(2564.416 1738.416)"/>
        <path id="Rectangle_2371" d="M0 0h2.361v2.361H0z" class="cls-3" data-name="Rectangle 2371" transform="translate(2564.416 1802.624)"/>
        <path id="Rectangle_2263" d="M0 0h2.361v2.361H0z" class="cls-3" data-name="Rectangle 2263" transform="translate(2692.833 1898.938)"/>
        <path id="Rectangle_2435" d="M0 0h2.361v2.361H0z" class="cls-3" data-name="Rectangle 2435" transform="translate(2692.833 1770.52)"/>
        <path id="Rectangle_2339" d="M0 0h2.361v2.361H0z" class="cls-3" data-name="Rectangle 2339" transform="translate(2692.833 1834.729)"/>
        <path id="Rectangle_2540" d="M0 0h2.361v2.361H0z" class="cls-3" data-name="Rectangle 2540" transform="translate(2692.833 1706.311)"/>
        <path id="Rectangle_2301" d="M0 0h2.361v2.361H0z" class="cls-3" data-name="Rectangle 2301" transform="translate(2692.833 1866.833)"/>
        <path id="Rectangle_2483" d="M0 0h2.361v2.361H0z" class="cls-3" data-name="Rectangle 2483" transform="translate(2692.833 1738.416)"/>
        <path id="Rectangle_2372" d="M0 0h2.361v2.361H0z" class="cls-3" data-name="Rectangle 2372" transform="translate(2692.833 1802.624)"/>
        <path id="Rectangle_2248" d="M0 0h2.361v2.361H0z" class="cls-3" data-name="Rectangle 2248" transform="translate(2628.624 1898.938)"/>
        <path id="Rectangle_2436" d="M0 0h2.361v2.361H0z" class="cls-3" data-name="Rectangle 2436" transform="translate(2628.624 1770.52)"/>
        <path id="Rectangle_2340" d="M0 0h2.361v2.361H0z" class="cls-3" data-name="Rectangle 2340" transform="translate(2628.624 1834.729)"/>
        <path id="Rectangle_2542" d="M0 0h2.361v2.361H0z" class="cls-3" data-name="Rectangle 2542" transform="translate(2628.624 1706.311)"/>
        <path id="Rectangle_2303" d="M0 0h2.361v2.361H0z" class="cls-3" data-name="Rectangle 2303" transform="translate(2628.624 1866.833)"/>
        <path id="Rectangle_2484" d="M0 0h2.361v2.361H0z" class="cls-3" data-name="Rectangle 2484" transform="translate(2628.624 1738.416)"/>
        <path id="Rectangle_2373" d="M0 0h2.361v2.361H0z" class="cls-3" data-name="Rectangle 2373" transform="translate(2628.624 1802.624)"/>
        <path id="Rectangle_2264" d="M0 0h2.361v2.361H0z" class="cls-3" data-name="Rectangle 2264" transform="translate(2757.042 1898.938)"/>
        <path id="Rectangle_2437" d="M0 0h2.361v2.361H0z" class="cls-3" data-name="Rectangle 2437" transform="translate(2757.042 1770.52)"/>
        <path id="Rectangle_2341" d="M0 0h2.361v2.361H0z" class="cls-3" data-name="Rectangle 2341" transform="translate(2757.042 1834.729)"/>
        <path id="Rectangle_2543" d="M0 0h2.361v2.361H0z" class="cls-3" data-name="Rectangle 2543" transform="translate(2757.042 1706.311)"/>
        <path id="Rectangle_2304" d="M0 0h2.361v2.361H0z" class="cls-3" data-name="Rectangle 2304" transform="translate(2757.042 1866.833)"/>
        <path id="Rectangle_2485" d="M0 0h2.361v2.361H0z" class="cls-3" data-name="Rectangle 2485" transform="translate(2757.042 1738.416)"/>
        <path id="Rectangle_2374" d="M0 0h2.361v2.361H0z" class="cls-3" data-name="Rectangle 2374" transform="translate(2757.042 1802.624)"/>
    </g>
</svg>
