<svg xmlns="http://www.w3.org/2000/svg" width="59.768" height="55.5" viewBox="0 0 59.768 55.5">
  <path id="Catastrophe_modeling" d="M382.313,252.616a1.064,1.064,0,0,0-1.486.263c-1.719,2.459-3.967,3.814-6.33,3.814-.09,0-.177-.015-.267-.019V246.461l.313.313a1.067,1.067,0,0,0,1.509,0l4.269-4.269a1.066,1.066,0,0,0,0-1.509L372.1,232.77V219.337a1.066,1.066,0,0,0-1.067-1.067h-6.4a1.066,1.066,0,0,0-1.067,1.067v4.895l-9.918-9.918a1.066,1.066,0,0,0-1.509,0L325.447,241a1.066,1.066,0,0,0,0,1.509l4.269,4.269a1.066,1.066,0,0,0,1.509,0l.313-.313v10.212c-.09,0-.177.019-.267.019h0c-2.362,0-4.608-1.355-6.327-3.814a1.067,1.067,0,0,0-1.748,1.223c2.128,3.045,4.995,4.723,8.074,4.725h0a9.5,9.5,0,0,0,7.206-3.6,9.5,9.5,0,0,0,7.2,3.6h0a9.5,9.5,0,0,0,7.2-3.6,9.012,9.012,0,0,0,14.409,0,9.5,9.5,0,0,0,7.2,3.6c3.08,0,5.949-1.678,8.078-4.725A1.066,1.066,0,0,0,382.313,252.616Zm-51.842-8.106-2.76-2.76,25.173-25.173,10.986,10.986a1.067,1.067,0,0,0,1.822-.755v-6.4h4.269v12.808a1.067,1.067,0,0,0,.313.755l7.784,7.784-2.76,2.76-21.659-21.659a1.067,1.067,0,0,0-1.509,0Zm28.817,12.125a8.223,8.223,0,0,1-5.53-3.756,1.106,1.106,0,0,0-1.748,0,8.223,8.223,0,0,1-5.53,3.756V244.952h12.808ZM372.1,256.2a9.09,9.09,0,0,1-3.929-3.324,1.106,1.106,0,0,0-1.748,0,8.472,8.472,0,0,1-5,3.652V243.885a1.066,1.066,0,0,0-1.067-1.067H345.413a1.066,1.066,0,0,0-1.067,1.067V256.53a8.554,8.554,0,0,1-5.028-3.695,1.125,1.125,0,0,0-1.725.054,9.084,9.084,0,0,1-3.92,3.313V244.326l19.211-19.211L372.1,244.326Zm2.337,7.335a7.615,7.615,0,0,1-13.213,0,1.107,1.107,0,0,0-1.729,0,8.28,8.28,0,0,1-6.6,3.828h0a8.249,8.249,0,0,1-6.575-3.783,1.124,1.124,0,0,0-1.767-.035,8.277,8.277,0,0,1-6.6,3.818h0a8.279,8.279,0,0,1-6.6-3.828,1.068,1.068,0,1,0-1.729,1.253c2.2,3.035,5.158,4.708,8.33,4.71h.005a9.957,9.957,0,0,0,7.469-3.633,9.957,9.957,0,0,0,7.473,3.633h.005a9.952,9.952,0,0,0,7.466-3.631,9.956,9.956,0,0,0,7.471,3.631c3.173,0,6.134-1.672,8.336-4.71a1.068,1.068,0,1,0-1.729-1.253Z" transform="translate(-323 -214)" fill="#c7c7c7"/>
</svg>
