<svg xmlns="http://www.w3.org/2000/svg" width="68.84" height="65.781" viewBox="0 0 68.84 65.781">
    <defs>
        <style>
            .cls-1,.cls-2{fill:none;stroke:#c7c7c7;stroke-linejoin:round;stroke-width:2.5px}.cls-2{stroke-linecap:round}
        </style>
    </defs>
    <g id="consulting_icon" transform="translate(1.25 1.25)">
        <g id="Icons" transform="translate(18.88)">
            <path id="Path_7339" d="M169.036 177.183s14.036-5.515 14.036-16.592v-13.036a29.485 29.485 0 0 0-28.073 0v13.036c.001 11.077 14.037 16.592 14.037 16.592z" class="cls-1" data-name="Path 7339" transform="translate(-155 -144)"/>
            <path id="Path_7340" d="M174.8 154l-4.934 5.307-4.937 5.307-4.929-5.307" class="cls-2" data-name="Path 7340" transform="translate(-153.366 -142.716)"/>
        </g>
        <g id="Title" transform="translate(0 20.566)">
            <g id="Group_5361" data-name="Group 5361">
                <path id="Path_7341" d="M140 196.229V178.98a3.98 3.98 0 0 1 3.98-3.98h2.654a3.98 3.98 0 0 1 3.98 3.98v7.961a1.327 1.327 0 0 0 1.327 1.327h9.288a2.653 2.653 0 0 1 2.654 2.654 2.653 2.653 0 0 1-2.654 2.654h-15.922" class="cls-2" data-name="Path 7341" transform="translate(-140 -161.475)"/>
                <path id="Path_7342" d="M195.882 196.229V178.98A3.98 3.98 0 0 0 191.9 175h-2.654a3.98 3.98 0 0 0-3.98 3.98v7.961a1.327 1.327 0 0 1-1.327 1.327h-9.288a2.653 2.653 0 0 0-2.651 2.654 2.653 2.653 0 0 0 2.654 2.654h15.922" class="cls-2" data-name="Path 7342" transform="translate(-129.543 -161.475)"/>
                <ellipse id="Ellipse_302" cx="4.813" cy="5.414" class="cls-1" data-name="Ellipse 302" rx="4.813" ry="5.414"/>
                <ellipse id="Ellipse_303" cx="4.813" cy="5.414" class="cls-1" data-name="Ellipse 303" rx="4.813" ry="5.414" transform="translate(56.551)"/>
                <path id="Path_7343" d="M151.412 189l-2.956 8.868a1.326 1.326 0 0 0 1.258 1.746h41.429a1.327 1.327 0 0 0 1.259-1.746L189.446 189" class="cls-1" data-name="Path 7343" transform="translate(-137.259 -156.9)"/>
                <path id="Path_7344" d="M186.5 186.961l-2.351-7.053a1.326 1.326 0 0 0-1.259-.908h-27.28a1.326 1.326 0 0 0-1.259.908L152 186.961" class="cls-1" data-name="Path 7344" transform="translate(-136.078 -160.168)"/>
            </g>
        </g>
    </g>
</svg>
