<?xml version="1.0" encoding="utf-8"?>
<!-- Generator: Adobe Illustrator 24.0.1, SVG Export Plug-In . SVG Version: 6.00 Build 0)  -->
<svg version="1.1" id="Layer_1" xmlns="http://www.w3.org/2000/svg"
     xmlns:xlink="http://www.w3.org/1999/xlink" x="0px" y="0px"
     viewBox="0 0 60 60" style="enable-background:new 0 0 60 60;"
     xml:space="preserve">
                                    <style type="text/css">
                                        .st0 {
                                            fill: #C7C7C7;
                                        }
                                    </style>
    <g>
                                                <path class="st0" d="M11.2,45.9c-0.8,0-1.6,0.2-2.3,0.6C5.3,41.8,3.3,36,3.3,30c0-14.8,12-26.8,26.8-26.8c1.8,0,3.6,0.2,5.3,0.5
            c0.6,0.1,1.2-0.3,1.3-0.9c0.1-0.6-0.3-1.2-0.9-1.3C33.9,1.2,32,1,30,1C22.3,1,15,4,9.5,9.5S1,22.3,1,30c0,6.5,2.2,12.9,6.2,18
            c-0.5,0.8-0.8,1.7-0.8,2.6c0,1.3,0.5,2.5,1.4,3.4c0.9,0.9,2.1,1.4,3.4,1.4s2.5-0.5,3.4-1.4c0.9-0.9,1.4-2.1,1.4-3.4
            c0-1.3-0.5-2.5-1.4-3.4C13.7,46.4,12.5,45.9,11.2,45.9z M13,52.4c-0.5,0.5-1.1,0.7-1.8,0.7c-0.7,0-1.3-0.3-1.8-0.7
            c-0.5-0.5-0.7-1.1-0.7-1.8c0-0.7,0.3-1.3,0.7-1.8c0.5-0.5,1.1-0.7,1.8-0.7c0.7,0,1.3,0.3,1.8,0.7c0.5,0.5,0.7,1.1,0.7,1.8
            C13.7,51.3,13.5,51.9,13,52.4z"/>
        <path class="st0" d="M52.8,12c1.2-1.8,1-4.4-0.6-6c-0.9-0.9-2.1-1.4-3.4-1.4S46.4,5.1,45.5,6c-0.9,0.9-1.4,2.1-1.4,3.4
            s0.5,2.5,1.4,3.4c0.9,0.9,2.1,1.4,3.4,1.4c0.8,0,1.6-0.2,2.3-0.6c3.7,4.7,5.7,10.5,5.7,16.4c0,14.8-12,26.8-26.8,26.8
            c-1.8,0-3.6-0.2-5.3-0.5c-0.6-0.1-1.2,0.3-1.3,0.9c-0.1,0.6,0.3,1.2,0.9,1.3c1.9,0.4,3.8,0.6,5.7,0.6c7.8,0,15-3,20.5-8.5
            s8.5-12.8,8.5-20.5C59.1,23.5,56.8,17.1,52.8,12z M47.1,11.1c-0.5-0.5-0.7-1.1-0.7-1.8c0-0.7,0.3-1.3,0.7-1.8
            c0.5-0.5,1.1-0.7,1.8-0.7c0.7,0,1.3,0.3,1.8,0.7c1,1,1,2.6,0,3.5c-0.5,0.5-1.1,0.7-1.8,0.7C48.2,11.9,47.6,11.6,47.1,11.1z"/>
        <path class="st0" d="M25.4,49.5c0,0.6,0.5,1.1,1.1,1.1h7.1c0.6,0,1.1-0.5,1.1-1.1v-2.2c1.5-0.4,2.9-1,4.3-1.8l1.6,1.6
            c0.2,0.2,0.5,0.3,0.8,0.3c0.3,0,0.6-0.1,0.8-0.3l5-5c0.4-0.4,0.4-1.2,0-1.6l-1.5-1.5c0.8-1.3,1.4-2.8,1.8-4.3h2.2
            c0.6,0,1.1-0.5,1.1-1.1v-7.1c0-0.6-0.5-1.1-1.1-1.1h-2.2c-0.4-1.5-1-2.9-1.8-4.3l1.5-1.5c0.2-0.2,0.3-0.5,0.3-0.8
            c0-0.3-0.1-0.6-0.3-0.8l-5-5c-0.4-0.4-1.2-0.4-1.6,0L39,14.4c-1.3-0.8-2.8-1.4-4.3-1.8v-2.2c0-0.6-0.5-1.1-1.1-1.1h-7.1
            c-0.6,0-1.1,0.5-1.1,1.1v2.2c-1.5,0.4-2.9,1-4.3,1.8l-1.5-1.5c-0.4-0.4-1.2-0.4-1.6,0l-5,5c-0.2,0.2-0.3,0.5-0.3,0.8
            c0,0.3,0.1,0.6,0.3,0.8l1.5,1.5c-0.8,1.3-1.4,2.8-1.8,4.3h-2.2c-0.6,0-1.1,0.5-1.1,1.1l0,7.1c0,0.3,0.1,0.6,0.3,0.8
            c0.2,0.2,0.5,0.3,0.8,0.3h2.2c0.4,1.5,1,2.9,1.8,4.3l-1.5,1.5c-0.4,0.4-0.4,1.2,0,1.6l5,5c0.2,0.2,0.5,0.3,0.8,0.3h0
            c0.3,0,0.6-0.1,0.8-0.3l1.6-1.6c1.3,0.8,2.8,1.4,4.3,1.8V49.5z M21.5,43.2c-0.4-0.3-1-0.2-1.4,0.2l-1.4,1.4l-3.4-3.4l1.4-1.4
            c0.4-0.4,0.4-1,0.2-1.4c-1-1.6-1.8-3.3-2.1-5.2c-0.1-0.5-0.6-0.9-1.1-0.9h-1.9l0-4.8h1.9c0.5,0,1-0.4,1.1-0.9
            c0.4-1.8,1.1-3.6,2.1-5.2c0.3-0.4,0.2-1-0.2-1.4l-1.4-1.4l3.4-3.4l1.4,1.4c0.4,0.4,1,0.4,1.4,0.2c1.6-1,3.3-1.8,5.2-2.1
            c0.5-0.1,0.9-0.6,0.9-1.1v-1.9h4.8v1.9c0,0.5,0.4,1,0.9,1.1c1.8,0.4,3.6,1.1,5.2,2.1c0.4,0.3,1,0.2,1.4-0.2l1.4-1.4l3.4,3.4
            l-1.4,1.4c-0.4,0.4-0.4,1-0.2,1.4c1,1.6,1.7,3.3,2.1,5.2c0.1,0.5,0.6,0.9,1.1,0.9h1.9v4.8h-1.9c-0.5,0-1,0.4-1.1,0.9
            c-0.4,1.8-1.1,3.6-2.1,5.2c-0.3,0.4-0.2,1,0.2,1.4l1.4,1.4l-3.4,3.4l-1.4-1.4c-0.4-0.4-1-0.4-1.4-0.2c-1.6,1-3.3,1.7-5.2,2.1
            c-0.5,0.1-0.9,0.6-0.9,1.1v2h-4.8v-2c0-0.5-0.4-1-0.9-1.1C24.9,44.9,23.1,44.2,21.5,43.2z"/>
        <path class="st0" d="M39.4,30c0-5.2-4.2-9.4-9.4-9.4s-9.4,4.2-9.4,9.4s4.2,9.4,9.4,9.4S39.4,35.2,39.4,30z M22.9,30
            c0-3.9,3.2-7.1,7.1-7.1s7.1,3.2,7.1,7.1s-3.2,7.1-7.1,7.1S22.9,33.9,22.9,30z"/>
        <path class="st0" d="M40.5,5.3c0.3,0,0.6-0.1,0.8-0.3c0.2-0.2,0.3-0.5,0.3-0.8c0-0.3-0.1-0.6-0.3-0.8C41.1,3.1,40.8,3,40.5,3
            c-0.3,0-0.6,0.1-0.8,0.3c-0.2,0.2-0.3,0.5-0.3,0.8c0,0.3,0.1,0.6,0.3,0.8C39.9,5.1,40.2,5.3,40.5,5.3z"/>
        <path class="st0" d="M19.6,54.8c-0.3,0-0.6,0.1-0.8,0.3c-0.2,0.2-0.3,0.5-0.3,0.8c0,0.3,0.1,0.6,0.3,0.8s0.5,0.3,0.8,0.3
            c0.3,0,0.6-0.1,0.8-0.3s0.3-0.5,0.3-0.8c0-0.3-0.1-0.6-0.3-0.8C20.2,54.9,19.9,54.8,19.6,54.8z"/>
                                            </g>
                                </svg>