<svg xmlns="http://www.w3.org/2000/svg" id="product_support_icon" width="44.063" height="44.063" viewBox="0 0 44.063 44.063">
    <defs>
        <style>
            .cls-1{fill:#00b7c6}
        </style>
    </defs>
    <path id="Path_8672" d="M7.75 34.076a3.593 3.593 0 0 0-1.736.443A20.32 20.32 0 0 1 26.077 2.124a.861.861 0 0 0 .34-1.687A22.2 22.2 0 0 0 22.032 0 22.032 22.032 0 0 0 4.741 35.685a3.616 3.616 0 1 0 3.009-1.61zm1.339 4.953a1.893 1.893 0 1 1 .555-1.339 1.88 1.88 0 0 1-.555 1.339zm0 0" class="cls-1" data-name="Path 8672"/>
    <path id="Path_8673" d="M219.81 37.669a3.607 3.607 0 1 0-1.272 1.168 20.32 20.32 0 0 1-20.024 32.4.861.861 0 1 0-.338 1.688 22.211 22.211 0 0 0 4.344.428 22.032 22.032 0 0 0 17.29-35.686zM215.463 37a1.894 1.894 0 1 1 1.339.554 1.881 1.881 0 0 1-1.339-.554zm0 0" class="cls-1" data-name="Path 8673" transform="translate(-180.488 -29.292)"/>
    <path id="Path_8674" d="M86.1 104.466a.861.861 0 0 0 .861.861h5.381a.861.861 0 0 0 .861-.861V102.8a13.476 13.476 0 0 0 3.23-1.339l1.178 1.178a.86.86 0 0 0 1.217 0l3.8-3.806a.861.861 0 0 0 0-1.217l-1.177-1.177a13.477 13.477 0 0 0 1.339-3.23h1.662a.861.861 0 0 0 .861-.861v-5.383a.861.861 0 0 0-.861-.861h-1.662a13.479 13.479 0 0 0-1.338-3.23l1.17-1.17a.861.861 0 0 0 0-1.218l-3.807-3.8a.861.861 0 0 0-1.217 0l-1.168 1.166a13.477 13.477 0 0 0-3.23-1.339v-1.652a.861.861 0 0 0-.861-.861h-5.381a.861.861 0 0 0-.861.861v1.653a13.466 13.466 0 0 0-3.23 1.338L81.7 76.683a.861.861 0 0 0-1.217 0l-3.806 3.8a.86.86 0 0 0 0 1.217l1.17 1.17a13.474 13.474 0 0 0-1.339 3.23h-1.66a.86.86 0 0 0-.861.86v5.381a.86.86 0 0 0 .861.861h1.662a13.477 13.477 0 0 0 1.339 3.23l-1.177 1.177a.861.861 0 0 0 0 1.217l3.8 3.806a.861.861 0 0 0 .608.252.861.861 0 0 0 .608-.252l1.178-1.178A13.488 13.488 0 0 0 86.1 102.8zm-2.892-4.817a.861.861 0 0 0-1.076.114l-1.048 1.048-2.587-2.589 1.047-1.047a.86.86 0 0 0 .114-1.075 11.78 11.78 0 0 1-1.63-3.934.861.861 0 0 0-.841-.68h-1.481v-3.66h1.476a.861.861 0 0 0 .841-.68 11.781 11.781 0 0 1 1.63-3.934.86.86 0 0 0-.114-1.075L78.5 81.1l2.589-2.587 1.039 1.039a.861.861 0 0 0 1.076.114 11.775 11.775 0 0 1 3.934-1.63.861.861 0 0 0 .68-.841v-1.47h3.66v1.469a.86.86 0 0 0 .68.841 11.785 11.785 0 0 1 3.934 1.63.86.86 0 0 0 1.075-.114l1.039-1.039L100.8 81.1l-1.04 1.04a.86.86 0 0 0-.114 1.076 11.788 11.788 0 0 1 1.63 3.934.86.86 0 0 0 .841.68h1.479v3.66h-1.479a.861.861 0 0 0-.841.68 11.778 11.778 0 0 1-1.63 3.934.861.861 0 0 0 .114 1.076l1.047 1.047-2.587 2.589-1.048-1.048a.86.86 0 0 0-1.076-.114 11.788 11.788 0 0 1-3.934 1.63.861.861 0 0 0-.68.841v1.485h-3.66v-1.49a.861.861 0 0 0-.68-.841 11.781 11.781 0 0 1-3.937-1.63zm0 0" class="cls-1" data-name="Path 8674" transform="translate(-67.617 -67.631)"/>
    <path id="Path_8675" d="M187.593 180.482a7.111 7.111 0 1 0-7.111 7.111 7.119 7.119 0 0 0 7.111-7.111zm-12.5 0a5.39 5.39 0 1 1 5.39 5.39 5.4 5.4 0 0 1-5.391-5.39zm0 0" class="cls-1" data-name="Path 8675" transform="translate(-158.451 -158.451)"/>
    <path id="Path_8676" d="M338.939 19.531a.861.861 0 1 0-.608-.252.867.867 0 0 0 .608.252zm0 0" class="cls-1" data-name="Path 8676" transform="translate(-308.983 -16.276)"/>
    <path id="Path_8677" d="M155.22 474.359a.861.861 0 1 0 .608.252.867.867 0 0 0-.608-.252zm0 0" class="cls-1" data-name="Path 8677" transform="translate(-141.075 -433.535)"/>
</svg>
