<?xml version="1.0" encoding="utf-8"?>
<!-- Generator: Adobe Illustrator 24.0.0, SVG Export Plug-In . SVG Version: 6.00 Build 0)  -->
<svg version="1.1" id="Layer_1" xmlns="http://www.w3.org/2000/svg" xmlns:xlink="http://www.w3.org/1999/xlink" x="0px" y="0px"
	 viewBox="0 0 66.1 66.1" style="enable-background:new 0 0 66.1 66.1;" xml:space="preserve">
<style type="text/css">
	.st0{fill:#C7C7C7;}
</style>
<g id="hosted_icon" transform="translate(1.25 1.25)">
	<path class="st0" d="M62.4,57.3H52.2c-0.7,0-1.2-0.6-1.2-1.2V45.8c0-0.7,0.6-1.2,1.2-1.2s1.2,0.6,1.2,1.2v8.9h8.9
		c0.7,0,1.2,0.6,1.2,1.2S63.1,57.3,62.4,57.3z"/>
	<path class="st0" d="M11.5,19.1c-0.7,0-1.2-0.6-1.2-1.2V8.9H1.3C0.6,8.9,0,8.3,0,7.6s0.6-1.2,1.2-1.2h10.2c0.7,0,1.2,0.6,1.2,1.2
		v10.2C12.7,18.5,12.1,19.1,11.5,19.1z"/>
	<path class="st0" d="M52.5,57.2c-0.4,0-0.7-0.1-1-0.4c-0.4-0.5-0.4-1.3,0.1-1.8C64.5,44.1,66,24.8,55,11.9
		C46.3,1.8,32.2-1.6,19.8,3.7c-0.6,0.3-1.4,0-1.6-0.7c-0.3-0.6,0-1.4,0.7-1.6c13.4-5.7,28.7-2.1,38.1,8.9
		C68.8,24.2,67.2,45.1,53.3,57C53.1,57.2,52.8,57.2,52.5,57.2z"/>
	<path class="st0" d="M31.8,64.9c-9.4,0-18.6-4.1-25.1-11.6C-5.1,39.5-3.5,18.5,10.3,6.7c0.5-0.4,1.3-0.4,1.8,0.1s0.4,1.3-0.1,1.8
		c-12.8,11-14.3,30.3-3.4,43.1c8.7,10.2,22.9,13.5,35.2,8.3c0.6-0.3,1.4,0,1.6,0.7c0.3,0.6,0,1.4-0.7,1.6
		C40.6,64,36.1,64.9,31.8,64.9z"/>
	<path class="st0" d="M31.8,52.2c-0.2,0-0.3,0-0.5-0.1c-0.6-0.3-14.8-6.4-14.8-19v-14c0-0.4,0.2-0.9,0.6-1.1c9-5.3,20.2-5.3,29.3,0
		c0.4,0.2,0.6,0.6,0.6,1.1v14c0,12.6-14.2,18.7-14.8,19C32.2,52.1,32,52.2,31.8,52.2z M19.1,19.8v13.3c0,9.7,10.4,15.3,12.8,16.4
		c2.4-1.2,12.8-6.7,12.8-16.4V19.8C36.6,15.4,27,15.4,19.1,19.8z"/>
	<path class="st0" d="M29.3,39.4c-0.3,0-0.6-0.1-0.9-0.4L23.3,34c-0.5-0.5-0.5-1.3,0-1.8c0.5-0.5,1.3-0.5,1.8,0l4.2,4.2l9.3-9.3
		c0.5-0.5,1.3-0.5,1.8,0c0.5,0.5,0.5,1.3,0,1.8L30.2,39.1C29.9,39.3,29.6,39.4,29.3,39.4z"/>
</g>
</svg>
