<?xml version="1.0" encoding="UTF-8"?>
<svg width="134px" height="134px" viewBox="0 0 134 134" version="1.1" xmlns="http://www.w3.org/2000/svg" xmlns:xlink="http://www.w3.org/1999/xlink">
    <!-- Generator: Sketch 53.2 (72643) - https://sketchapp.com -->
    <title>Group 12</title>
    <desc>Created with Sketch.</desc>
    <g id="Page-1" stroke="none" stroke-width="1" fill="none" fill-rule="evenodd">
        <g id="Group-12" transform="translate(3.000000, 3.000000)" stroke="#FFFFFF">
            <path d="M24,89 C31.2605428,95.547726 38.3819896,95.547726 45.3643404,89 C49.0997737,92.9057756 55.6342598,99.6063287 65.5442598,91.4553973 C68.377674,93.1638087 74.8889799,99.5847967 85.2990057,92.1565691 C89.2178845,94.1011949 97.8660276,100.73043 105.046607,89" id="Path-12-Copy-3" stroke-width="4" stroke-linecap="round"></path>
            <path d="M35.5442598,102.678411 C41.0234347,108.3844 46.0003775,108.68679 50.4750882,103.585581 C53.1483048,107.491356 59.0997438,109.804134 64.9948588,103.585581 C67.0225565,105.293992 72.2363708,111.013808 79.6861768,103.585581 C82.4906738,105.530207 86.9742598,110.106639 93.5442598,102.678411" id="Path-12-Copy-2" stroke-width="4" stroke-linecap="round"></path>
            <g id="Group-2">
                <path d="M59.5,35.5 L76.3197434,35.5" id="Line" stroke-width="4" stroke-linecap="square"></path>
                <path d="M61.16,26.5 L74.6195698,26.5" id="Line-2" stroke-width="4" stroke-linecap="square"></path>
                <circle id="Oval" stroke-width="5" cx="64" cy="64" r="64"></circle>
                <path d="M27.01,46.72 L31,46.72 L31,57.285 L38.53,57.285 L38.53,52.5 L45.1,52.5 L45.1,57.285 L52.85,57.285 L52.85,52.5 L59.42,52.5 L59.42,62.07 L52.85,62.07 L52.85,58.0263672 L45.1,58.0263672 L45.1,62.07 L38.53,62.07 L38.53,58.0263672 L31,58.0263672 L31,75.1534185 L37.6924182,75.1534185 L37.6924182,85.27 C39.5074727,85.2479289 40.8816667,84.6361451 41.815,83.4346486 C43.215,81.632404 45.3699096,81.43 47.44,81.43 C47.4539476,79.6989109 47.4539476,77.6067171 47.44,75.1534185 L81.5610752,75.1534185 L81.58,81.43 C84.1857475,81.0998333 85.8452523,81.5367334 86.5585145,82.7407002 C87.2717767,83.944667 88.8589385,84.787767 91.32,85.27 L91.32,75.1534185 L97.21,75.06 L97.21,62.07 L66.91,62.07 L66.91,42.6 L27.01,42.5 L27.01,46.72 Z" id="Path-17" fill="#FFFFFF"></path>
                <polyline id="Path-22" stroke-width="4" points="57.3382329 43 61.6275752 16.9436099 74.6047476 16.9436099 80.184295 49.1384375"></polyline>
                <path d="M71.74,57.73 L92.9153677,27.9095386 C94.3110605,25.9440378 96.9745444,25.3658717 99.0595353,26.5758157 L99.0595353,26.5758157 C101.214856,27.8265731 102.223879,30.3977546 101.494502,32.7805702 L93.8744834,57.6745309 L71.74,57.73 Z" id="Path-23" fill="#FFFFFF"></path>
            </g>
        </g>
    </g>
</svg>