<?xml version="1.0" encoding="UTF-8"?>
<svg width="134px" height="134px" viewBox="0 0 134 134" version="1.1" xmlns="http://www.w3.org/2000/svg" xmlns:xlink="http://www.w3.org/1999/xlink">
    <!-- Generator: Sketch 53.2 (72643) - https://sketchapp.com -->
    <title>Group 2</title>
    <desc>Created with Sketch.</desc>
    <g id="Page-1" stroke="none" stroke-width="1" fill="none" fill-rule="evenodd">
        <g id="Group-2" transform="translate(3.000000, 3.000000)" stroke="#FFFFFF">
            <path d="M31.1209692,27.7240589 L31.1209692,62.8166047" id="Path-2" stroke-width="3"></path>
            <path d="M74.5,44 L74.5,80.5" id="Path-2-Copy" stroke-width="3"></path>
            <path d="M98.5,27 L98.5,62.8166047" id="Path-2-Copy-2" stroke-width="3"></path>
            <path d="M55.5,27 L55.5,45.8166047" id="Path-2-Copy-3" stroke-width="3"></path>
            <path d="M27.5,54.5 L40.5,54.5" id="Line" stroke-width="3" stroke-linecap="square"></path>
            <path d="M25.59,36.5 L103.52456,36.5" id="Line-Copy" stroke-width="3" stroke-linecap="square"></path>
            <path d="M68.59,54.5 L103.52456,54.5" id="Line-Copy-2" stroke-width="3" stroke-linecap="square"></path>
            <circle id="Oval" stroke-width="5" cx="64" cy="64" r="64"></circle>
            <polygon id="Path-15" fill="#FFFFFF" points="25.59 113.78 25.59 100.44 31.82 100.44 39.82 100.44 39.82 92.44 31.82 92.44 31.82 99.7795709 25.59 99.7795709 25.59 81.979164 31.82 81.979164 31.82 83.11 39.82 83.11 39.82 75.11 31.82 75.11 31.82 81.34 25.59 81.34 25.59 66.1210041 45.620412 66.1210041 45.42 48.44 64.625 48.44 64.625 75.11 51.02 75.11 51.02 83.11 59.02 83.11 59.02 75.8128404 64.625 75.8128404 64.625 84.4064115 70.22 84.4064115 70.22 100.44 78.22 100.44 78.22 92.44 70.8050346 92.44 70.8050346 84.4064115 83.8306911 84.4064115 83.8306911 66.1210041 103.023958 66.1210041 103.023958 92.44 89.42 92.44 89.42 99.7795709 89.42 100.44 97.42 100.44 97.42 93.1530794 103.023958 93.1530794 103.023958 111.7 88.6435884 122.132528 72.3282825 127.331383 59.02 125.992966 59.02 109.78 51.02 109.78 51.02 117.78 58.4385088 118 58.4385088 125.992966 46.311277 124.644686 33.5090474 119.358347"></polygon>
        </g>
    </g>
</svg>