<svg xmlns="http://www.w3.org/2000/svg" width="104" height="104" viewBox="0 0 104 104">
  <g id="IFM_icon" data-name="IFM icon" transform="translate(0 0.133)">
    <g id="Group_5859" data-name="Group 5859">
      <g id="Group_5857" data-name="Group 5857">
        <path id="Path_8776" data-name="Path 8776" d="M51.934,0a51.934,51.934,0,1,0,51.934,51.934A51.956,51.956,0,0,0,51.934,0Zm0,100.333a48.349,48.349,0,1,1,48.3-48.4A48.341,48.341,0,0,1,51.934,100.333Z" fill="#2E2E2E"/>
      </g>
      <g id="Group_5858" data-name="Group 5858" transform="translate(7.552 7.552)">
        <rect id="Rectangle_19516" data-name="Rectangle 19516" width="5.178" height="5.178" transform="translate(36.982 43.28)" fill="#2E2E2E"/>
        <rect id="Rectangle_19517" data-name="Rectangle 19517" width="5.178" height="5.178" transform="translate(36.982 52.222)" fill="#2E2E2E"/>
        <rect id="Rectangle_19518" data-name="Rectangle 19518" width="5.178" height="5.178" transform="translate(27.361 43.28)" fill="#2E2E2E"/>
        <rect id="Rectangle_19519" data-name="Rectangle 19519" width="5.178" height="5.178" transform="translate(36.982 61.165)" fill="#2E2E2E"/>
        <rect id="Rectangle_19520" data-name="Rectangle 19520" width="5.178" height="5.178" transform="translate(27.361 61.165)" fill="#2E2E2E"/>
        <rect id="Rectangle_19521" data-name="Rectangle 19521" width="5.178" height="5.178" transform="translate(27.361 52.222)" fill="#2E2E2E"/>
        <rect id="Rectangle_19522" data-name="Rectangle 19522" width="5.178" height="5.178" transform="translate(56.225 43.28)" fill="#2E2E2E"/>
        <rect id="Rectangle_19523" data-name="Rectangle 19523" width="5.178" height="5.178" transform="translate(56.225 61.165)" fill="#2E2E2E"/>
        <rect id="Rectangle_19524" data-name="Rectangle 19524" width="5.178" height="5.178" transform="translate(56.225 52.222)" fill="#2E2E2E"/>
        <path id="Path_8777" data-name="Path 8777" d="M26.307,89.7H83.19A44.988,44.988,0,0,0,99.133,55.252c0-24.789-19.868-44.882-44.382-44.882S10.37,30.462,10.37,55.252A45.005,45.005,0,0,0,26.307,89.7Zm5-43.644,30.771-9.533v9.533h4.551l1.059-20.682a1.185,1.185,0,0,1,1.174-1.187h1.772A1.185,1.185,0,0,1,71.8,25.379l1.059,20.682h5.329V84.316H31.3Z" transform="translate(-10.37 -10.37)" fill="#2E2E2E"/>
        <rect id="Rectangle_19525" data-name="Rectangle 19525" width="5.178" height="5.178" transform="translate(46.604 61.165)" fill="#2E2E2E"/>
        <rect id="Rectangle_19526" data-name="Rectangle 19526" width="5.178" height="5.178" transform="translate(46.604 43.28)" fill="#2E2E2E"/>
        <rect id="Rectangle_19527" data-name="Rectangle 19527" width="5.178" height="5.178" transform="translate(46.604 52.222)" fill="#2E2E2E"/>
      </g>
    </g>
    <rect id="Rectangle_19528" data-name="Rectangle 19528" width="104" height="104" transform="translate(0 -0.133)" fill="none"/>
  </g>
</svg>
