<svg xmlns="http://www.w3.org/2000/svg" width="18" height="18" viewBox="0 0 18 18">
    <defs>
        <style>
            .cls-1,.cls-3,.cls-4{fill:#fff}.cls-1{stroke:#707070}.cls-2{clip-path:url(#clip-path)}.cls-3{stroke:#fff;stroke-width:.8px}
        </style>
        <clipPath id="clip-path">
            <path id="Rectangle_3580" d="M0 0h18v18H0z" class="cls-1" data-name="Rectangle 3580" transform="translate(1291 447)"/>
        </clipPath>
    </defs>
    <g id="Mask_Group_31" class="cls-2" data-name="Mask Group 31" transform="translate(-1291 -447)">
        <g id="expand_2_" data-name="expand (2)" transform="translate(1292.241 448.241)">
            <path id="Path_7629" d="M15.859 5.855a.293.293 0 0 1-.207-.5l5.27-5.27a.293.293 0 0 1 .414.415l-5.27 5.27a.292.292 0 0 1-.207.085z" class="cls-3" data-name="Path 7629" transform="translate(-5.904)"/>
            <path id="Path_7630" d="M.293 21.421a.293.293 0 0 1-.207-.5l5.27-5.27a.293.293 0 1 1 .414.414L.5 21.336a.292.292 0 0 1-.207.085z" class="cls-3" data-name="Path 7630" transform="translate(0 -5.904)"/>
            <path id="Path_7631" d="M21.129 21.421a.292.292 0 0 1-.207-.086l-5.27-5.27a.293.293 0 1 1 .414-.414l5.27 5.27a.293.293 0 0 1-.207.5z" class="cls-3" data-name="Path 7631" transform="translate(-5.904 -5.904)"/>
            <path id="Path_7632" d="M5.562 5.855a.292.292 0 0 1-.207-.086L.086.5A.293.293 0 0 1 .5.086l5.27 5.27a.293.293 0 0 1-.207.5z" class="cls-3" data-name="Path 7632"/>
            <path id="Path_7633" d="M3.582.586H.293a.293.293 0 0 1 0-.586h3.289a.293.293 0 0 1 0 .586z" class="cls-3" data-name="Path 7633"/>
            <path id="Path_7634" d="M.293 3.876A.293.293 0 0 1 0 3.584V.293a.293.293 0 0 1 .586 0v3.291a.293.293 0 0 1-.293.292z" class="cls-3" data-name="Path 7634"/>
            <path id="Path_7635" d="M22.2 24.642h-3.274a.293.293 0 1 1 0-.586H22.2a.293.293 0 1 1 0 .586z" class="cls-3" data-name="Path 7635" transform="translate(-6.978 -9.125)"/>
            <path id="Path_7636" d="M24.349 22.495a.293.293 0 0 1-.293-.293v-3.268a.293.293 0 1 1 .586 0V22.2a.293.293 0 0 1-.293.295z" class="cls-3" data-name="Path 7636" transform="translate(-9.125 -6.978)"/>
            <path id="Path_7637" d="M.293 22.495A.293.293 0 0 1 0 22.2v-3.261a.293.293 0 1 1 .586 0V22.2a.293.293 0 0 1-.293.295z" class="cls-3" data-name="Path 7637" transform="translate(0 -6.978)"/>
            <path id="Path_7638" d="M3.526 24.642H.293a.293.293 0 1 1 0-.586h3.233a.293.293 0 0 1 0 .586z" class="cls-3" data-name="Path 7638" transform="translate(0 -9.125)"/>
            <path id="Path_7639" d="M24.349 3.942a.293.293 0 0 1-.293-.293V.293a.293.293 0 1 1 .586 0v3.356a.293.293 0 0 1-.293.293z" class="cls-3" data-name="Path 7639" transform="translate(-9.125)"/>
            <path id="Path_7640" d="M22.2.586h-3.293a.293.293 0 1 1 0-.586H22.2a.293.293 0 1 1 0 .586z" class="cls-3" data-name="Path 7640" transform="translate(-6.978)"/>
            <g id="Group_5536" data-name="Group 5536" transform="translate(5.27 5.27)">
                <path id="Rectangle_3581" d="M0 0h4.392v4.392H0z" class="cls-4" data-name="Rectangle 3581" transform="translate(.293 .293)"/>
                <path id="Path_7641" d="M13.468 13.468H8.49V8.49h4.977zm-4.392-.586h3.806V9.076H9.076z" class="cls-4" data-name="Path 7641" transform="translate(-8.49 -8.49)"/>
            </g>
        </g>
    </g>
</svg>
