<svg version="1.1" id="Layer_1" xmlns="http://www.w3.org/2000/svg"
     xmlns:xlink="http://www.w3.org/1999/xlink" x="0px" y="0px"
     viewBox="0 0 60 60" style="enable-background:new 0 0 60 60;"
     xml:space="preserve">
                              <style type="text/css">
                                  .st0 {
                                      fill: #C7C7C7;
                                  }
                              </style>
    <g id="Global_network_1_">
                                                <path class="st0" d="M30.3,0.7C14.1,0.7,1,13.8,1,30s13.1,29.3,29.3,29.3S59.7,46.2,59.7,30C59.6,13.8,46.5,0.7,30.3,0.7z
       M47.8,42.7c-0.3-1-1-1.9-1.9-2.4c0.4-2.1,0.7-4.3,0.9-6.5c1.4-0.3,2.6-1.4,2.9-2.8h7.9c-0.1,4.1-1.2,8.1-3.1,11.7H47.8z
       M42.1,43.7c0-1.1,0.9-2,2-2c1.1,0,2,0.9,2,2s-0.9,2-2,2C42.9,45.6,42.1,44.8,42.1,43.7z M40.2,42.7h-6.1c-0.4-1.4-1.4-2.4-2.8-2.8
      v-6.1c1.4-0.4,2.4-1.4,2.8-2.8h8.1c0.3,1.3,1.3,2.4,2.6,2.7c-0.1,2-0.4,4.1-0.8,6.1C42.2,39.8,40.7,41,40.2,42.7z M30.3,45.6
      c-1.1,0-2-0.9-2-2s0.9-2,2-2c1.1,0,2,0.9,2,2S31.4,45.6,30.3,45.6z M26.6,42.7h-6.1c-0.4-1.6-1.7-2.7-3.3-2.9c-0.1,0-0.3,0-0.4,0
      c-0.4-2-0.7-4-0.8-6.1c1.3-0.4,2.3-1.4,2.6-2.7h8.1c0.4,1.4,1.4,2.4,2.8,2.8v6.1C28,40.3,26.9,41.3,26.6,42.7z M18.6,43.9
      c-0.1,1.1-1.1,1.8-2.2,1.7c-1.1-0.1-1.8-1.1-1.7-2.2c0.1-1.1,1.1-1.8,2.2-1.7C17.9,41.9,18.7,42.8,18.6,43.9z M12.9,42.7H6.1
      C4.2,39.1,3.1,35.1,3,31h7.9c0.4,1.4,1.5,2.5,2.9,2.8c0.1,2.2,0.4,4.3,0.9,6.5C13.8,40.8,13.1,41.7,12.9,42.7z M12.9,17.3
      c0.3,1,1,1.9,1.9,2.4c-0.4,2.1-0.7,4.3-0.9,6.5c-1.4,0.3-2.6,1.4-2.9,2.8H3c0.1-4.1,1.2-8.1,3.1-11.7H12.9z M18.6,16.3
      c0,1.1-0.9,2-2,2c-1.1,0-2-0.9-2-2s0.9-2,2-2C17.7,14.4,18.6,15.2,18.6,16.3z M20.4,17.3h6.1c0.4,1.4,1.4,2.4,2.8,2.8v6.1
      c-1.4,0.4-2.4,1.4-2.8,2.8h-8.1c-0.3-1.3-1.3-2.4-2.6-2.7c0.1-2,0.4-4.1,0.8-6.1C18.4,20.2,20,19,20.4,17.3z M30.3,14.4
      c1.1,0,2,0.9,2,2s-0.9,2-2,2c-1.1,0-2-0.9-2-2S29.2,14.4,30.3,14.4z M34.1,17.3h6.1c0.4,1.7,2,2.9,3.8,2.9c0.4,2,0.7,4,0.8,6.1
      c-1.3,0.4-2.3,1.4-2.6,2.7h-8.1c-0.4-1.4-1.4-2.4-2.8-2.8v-6.1C32.7,19.7,33.7,18.7,34.1,17.3z M44,14.4c1.1,0,2,0.9,2,2
      s-0.9,2-2,2c-1.1,0-2-0.9-2-2S42.9,14.4,44,14.4z M46,32c-1.1,0-2-0.9-2-2c0-1.1,0.9-2,2-2c1.1,0,2,0.9,2,2C47.9,31.1,47,32,46,32z
       M30.3,32c-1.1,0-2-0.9-2-2c0-1.1,0.9-2,2-2c1.1,0,2,0.9,2,2C32.3,31.1,31.4,32,30.3,32z M14.7,32c-1.1,0-2-0.9-2-2
      c0-1.1,0.9-2,2-2s2,0.9,2,2C16.6,31.1,15.8,32,14.7,32z M49.7,29c-0.4-1.4-1.5-2.5-2.9-2.8c-0.1-2.2-0.5-4.3-0.9-6.5
      c0.9-0.5,1.6-1.4,1.9-2.4h6.8c1.9,3.6,3,7.6,3.1,11.7H49.7z M53.4,15.3h-5.6c-0.4-1.7-2-2.9-3.8-2.9c-0.1,0-0.2,0-0.4,0
      c-1.3-3.4-3.3-6.4-6-8.8C44.2,5.5,49.8,9.6,53.4,15.3z M41.8,13.1c-0.8,0.5-1.3,1.3-1.6,2.2h-6.1c-0.4-1.4-1.4-2.4-2.8-2.8V2.7
      C35.4,3.2,39.2,7,41.8,13.1z M29.3,2.7v9.8c-1.4,0.4-2.4,1.4-2.8,2.8h-6.1c-0.2-0.9-0.8-1.7-1.6-2.2C21.4,7,25.3,3.2,29.3,2.7z
       M23,3.6c-2.6,2.4-4.7,5.4-6,8.8c-0.1,0-0.2,0-0.4,0c-1.8,0-3.3,1.2-3.8,2.9H7.2C10.9,9.6,16.5,5.5,23,3.6z M7.2,44.7h5.6
      c0.4,1.6,1.7,2.7,3.3,2.9c0.1,0,0.3,0,0.4,0c0.1,0,0.2,0,0.3,0c1.3,3.4,3.3,6.4,6,8.8C16.5,54.5,10.9,50.4,7.2,44.7z M18.8,46.9
      c0.1-0.1,0.2-0.1,0.2-0.2c0.7-0.5,1.1-1.3,1.3-2.1h6.1c0.4,1.4,1.4,2.4,2.8,2.8v9.8C25.3,56.8,21.4,53,18.8,46.9z M31.3,57.3v-9.8
      c1.4-0.4,2.4-1.4,2.8-2.8h6.1c0.2,0.9,0.8,1.7,1.6,2.2C39.2,53,35.4,56.8,31.3,57.3z M37.7,56.4c2.6-2.4,4.7-5.4,6-8.8
      c0.1,0,0.2,0,0.4,0c1.8,0,3.3-1.2,3.8-2.9h5.6C49.8,50.4,44.2,54.5,37.7,56.4z"/>
                                            </g>
                          </svg>