<svg xmlns="http://www.w3.org/2000/svg" width="39.913" height="39.913" viewBox="0 0 39.913 39.913">
    <defs>
        <style>
            .cls-1{fill:#00b7c6}
        </style>
    </defs>
    <g id="risk_Intelligence" transform="translate(-259 -231)">
        <g id="Group_4136" data-name="Group 4136" transform="translate(259 231)">
            <g id="Group_4131" data-name="Group 4131" transform="translate(0 11.404)">
                <path id="Path_5458" d="M262.8 250.6a3.8 3.8 0 1 1 3.8-3.8 3.805 3.805 0 0 1-3.8 3.8zm0-5.7a1.9 1.9 0 1 0 1.9 1.9 1.9 1.9 0 0 0-1.9-1.9z" class="cls-1" data-name="Path 5458" transform="translate(-259 -243)"/>
            </g>
            <g id="Group_4132" data-name="Group 4132" transform="translate(3.801 32.31)">
                <path id="Path_5459" d="M266.8 272.6a3.8 3.8 0 1 1 3.8-3.8 3.805 3.805 0 0 1-3.8 3.8zm0-5.7a1.9 1.9 0 1 0 1.9 1.9 1.9 1.9 0 0 0-1.9-1.9z" class="cls-1" data-name="Path 5459" transform="translate(-263 -265)"/>
            </g>
            <path id="Path_5460" d="M296.8 250.6a3.8 3.8 0 1 1 3.8-3.8 3.805 3.805 0 0 1-3.8 3.8zm0-5.7a1.9 1.9 0 1 0 1.9 1.9 1.9 1.9 0 0 0-1.9-1.9z" class="cls-1" data-name="Path 5460" transform="translate(-260.69 -231.596)"/>
            <g id="Group_4133" data-name="Group 4133" transform="translate(28.509 17.667)">
                <path id="Path_5461" d="M292.976 265.185a2.822 2.822 0 0 1 1.413.389l2.843-15.639a2.877 2.877 0 0 1-.455.046 2.823 2.823 0 0 1-1.413-.389l-2.844 15.638a2.889 2.889 0 0 1 .456-.045z" class="cls-1" data-name="Path 5461" transform="translate(-289.175 -249.591)"/>
                <path id="Path_5462" d="M292.8 272.6a3.8 3.8 0 1 1 3.8-3.8 3.805 3.805 0 0 1-3.8 3.8zm0-5.7a1.9 1.9 0 1 0 1.9 1.9 1.9 1.9 0 0 0-1.9-1.9z" class="cls-1" data-name="Path 5462" transform="translate(-289 -250.357)"/>
            </g>
            <g id="Group_4134" data-name="Group 4134" transform="translate(16.155)">
                <path id="Path_5463" d="M279.8 238.6a3.8 3.8 0 1 1 3.8-3.8 3.805 3.805 0 0 1-3.8 3.8zm0-5.7a1.9 1.9 0 1 0 1.9 1.9 1.9 1.9 0 0 0-1.9-1.9z" class="cls-1" data-name="Path 5463" transform="translate(-276 -231)"/>
            </g>
            <g id="Group_4135" data-name="Group 4135" transform="translate(16.155 18.056)">
                <path id="Path_5464" d="M279.8 257.6a3.8 3.8 0 1 1 3.8-3.8 3.805 3.805 0 0 1-3.8 3.8zm0-5.7a1.9 1.9 0 1 0 1.9 1.9 1.9 1.9 0 0 0-1.9-1.9z" class="cls-1" data-name="Path 5464" transform="translate(-276 -250)"/>
            </g>
        </g>
        <path id="Path_5465" d="M269.816 268a2.67 2.67 0 0 1 0 1.9h19.356a2.671 2.671 0 0 1 0-1.9z" class="cls-1" data-name="Path 5465" transform="translate(-.537 -1.839)"/>
        <path id="Path_5466" d="M262.976 249.98a2.878 2.878 0 0 1-.455-.046l2.843 15.639a2.822 2.822 0 0 1 1.413-.389 2.889 2.889 0 0 1 .456.046l-2.844-15.639a2.823 2.823 0 0 1-1.413.389z" class="cls-1" data-name="Path 5466" transform="translate(-.175 -.924)"/>
        <g id="Group_4137" data-name="Group 4137" transform="translate(264.444 235.567)">
            <path id="Path_5467" d="M277.6 237.364a2.85 2.85 0 0 1-1.09-1.558l-11.778 8.314a2.844 2.844 0 0 1 1.09 1.558z" class="cls-1" data-name="Path 5467" transform="translate(-264.729 -235.806)"/>
            <path id="Path_5468" d="M282.82 235.806a2.85 2.85 0 0 1-1.09 1.558l11.778 8.314a2.834 2.834 0 0 1 1.09-1.558z" class="cls-1" data-name="Path 5468" transform="translate(-265.574 -235.806)"/>
        </g>
        <g id="Group_4138" data-name="Group 4138" transform="translate(264.915 237.477)">
            <path id="Path_5469" d="M277.152 251.762l-11.205-4.615a2.823 2.823 0 0 1-.723 1.758l11.205 4.615a2.824 2.824 0 0 1 .723-1.758z" class="cls-1" data-name="Path 5469" transform="translate(-265.224 -238.28)"/>
            <path id="Path_5470" d="M282.947 253.52l11.2-4.615a2.824 2.824 0 0 1-.723-1.758l-11.205 4.615a2.824 2.824 0 0 1 .728 1.758z" class="cls-1" data-name="Path 5470" transform="translate(-266.069 -238.28)"/>
            <path id="Path_5471" d="M279.95 250.345a2.819 2.819 0 0 1 .95.175v-12.7a2.67 2.67 0 0 1-1.9 0v12.7a2.814 2.814 0 0 1 .95-.175z" class="cls-1" data-name="Path 5471" transform="translate(-265.909 -237.816)"/>
            <path id="Path_5472" d="M281.092 256.723l8.846 10.206a2.849 2.849 0 0 1 1.432-1.251l-8.846-10.206a2.85 2.85 0 0 1-1.432 1.251z" class="cls-1" data-name="Path 5472" transform="translate(-266.013 -238.693)"/>
            <path id="Path_5473" d="M276.938 255.472l-8.846 10.206a2.849 2.849 0 0 1 1.432 1.251l8.846-10.206a2.849 2.849 0 0 1-1.432-1.251z" class="cls-1" data-name="Path 5473" transform="translate(-265.367 -238.693)"/>
        </g>
    </g>
</svg>
