<?xml version="1.0" encoding="utf-8"?>
<!-- Generator: Adobe Illustrator 24.0.1, SVG Export Plug-In . SVG Version: 6.00 Build 0)  -->
<svg version="1.1" id="Layer_1" xmlns="http://www.w3.org/2000/svg"
     xmlns:xlink="http://www.w3.org/1999/xlink" x="0px" y="0px"
     viewBox="0 0 60 60" style="enable-background:new 0 0 60 60;"
     xml:space="preserve">
                                    <style type="text/css">
                                        .st0 {
                                            fill: #C7C7C7;
                                        }
                                    </style>
    <g>
                                                <g>
                                                    <g>
                                                        <path class="st0" d="M25.4,5.2c-11.1,0-20,9-20,20s9,20,20,20s20-9,20-20C45.4,14.2,36.4,5.2,25.4,5.2z M25.4,7.1
                    c5.9,0,11.4,2.9,14.8,7.7l-2.4,2.4c-0.6-0.4-1.2-0.5-1.9-0.5c-2.1,0-3.8,1.7-3.8,3.8c0,0.7,0.2,1.3,0.5,1.9l-6.2,6.2
                    c-1.2-0.7-2.7-0.7-3.9,0l-4.3-4.3c0.4-0.6,0.5-1.2,0.5-1.9c0-2.1-1.7-3.8-3.8-3.8c-1.7,0-3.3,1.2-3.7,2.9H7.6
                    C9.5,13.1,16.8,7.1,25.4,7.1z M37.8,20.5c0,1.1-0.9,1.9-1.9,1.9S34,21.5,34,20.5s0.9-1.9,1.9-1.9S37.8,19.4,37.8,20.5z
                     M26.3,31.9c0,1.1-0.9,1.9-1.9,1.9s-1.9-0.9-1.9-1.9s0.9-1.9,1.9-1.9S26.3,30.9,26.3,31.9z M16.8,22.4c0,1.1-0.9,1.9-1.9,1.9
                    S13,23.4,13,22.4c0-1.1,0.9-1.9,1.9-1.9S16.8,21.3,16.8,22.4z M34.2,41.1c-2.7,1.5-5.7,2.3-8.8,2.3c-10,0-18.1-8.1-18.1-18.1
                    c0-0.6,0-1.3,0.1-1.9h3.9c0.4,1.7,1.9,2.9,3.7,2.9c0.7,0,1.3-0.2,1.9-0.5l4.3,4.3c-0.4,0.6-0.5,1.2-0.5,1.9
                    c0,2.1,1.7,3.8,3.8,3.8s3.8-1.7,3.8-3.8c0-0.7-0.2-1.3-0.5-1.9l6.2-6.2c0.6,0.4,1.2,0.5,1.9,0.5c2.1,0,3.8-1.7,3.8-3.8
                    c0-0.7-0.2-1.3-0.5-1.9l2.1-2.1C46.1,25.2,42.9,36.2,34.2,41.1z"/>
                                                    </g>
                                                </g>
        <g>
                                                    <g>
                                                        <path class="st0" d="M49.2,10.9c1.7,0,3.2-1.2,3.7-2.9h5.9V6.1h-5.9c-0.4-1.7-1.9-2.9-3.7-2.9c-2.1,0-3.8,1.7-3.8,3.8
                    c0,0.7,0.2,1.3,0.5,1.9l-1.7,1.7c-8-10.5-23-12.4-33.5-4.4s-12.4,23-4.4,33.5C14,49.6,27.9,52,38.3,45.3l2.9,2.9l1.3,1.3l7.7,7.7
                    c2,2,5.1,2,7.1,0c2-2,2-5.1,0-7.1l-7.7-7.7l-1.3-1.3l-2.9-2.9c5.1-7.9,5.1-18,0-25.9l1.9-1.9C47.9,10.7,48.5,10.9,49.2,10.9z
                     M49.2,5.2c1.1,0,1.9,0.9,1.9,1.9S50.3,9,49.2,9s-1.9-0.9-1.9-1.9S48.2,5.2,49.2,5.2z M56,51.4c1.2,1.2,1.2,3.2,0,4.4
                    c-1.2,1.2-3.2,1.2-4.4,0c0,0,0,0,0,0l-7.7-7.7l4.4-4.4L56,51.4z M46.9,42.4l-4.4,4.4l-2.6-2.6c0.1-0.1,0.3-0.2,0.4-0.3
                    c0.1-0.1,0.3-0.2,0.4-0.4c0.2-0.2,0.4-0.4,0.6-0.5c0.1-0.1,0.2-0.2,0.3-0.3c0.4-0.4,0.8-0.7,1.1-1.1c0.1-0.1,0.2-0.2,0.3-0.3
                    c0.2-0.2,0.4-0.4,0.5-0.6c0.1-0.1,0.2-0.3,0.4-0.4c0.1-0.1,0.2-0.3,0.3-0.4L46.9,42.4z M43.2,38c-0.3,0.4-0.6,0.8-0.9,1.2
                    c-0.1,0.1-0.2,0.2-0.3,0.3c-0.3,0.3-0.6,0.7-0.9,1c-0.1,0.1-0.3,0.3-0.4,0.4c-0.3,0.3-0.6,0.6-1,0.9c-0.1,0.1-0.2,0.2-0.3,0.3
                    c-0.4,0.3-0.8,0.6-1.2,0.9c-9.9,7.1-23.6,4.8-30.7-5.1S2.7,14.4,12.6,7.3s23.6-4.8,30.7,5.1C48.7,20.1,48.7,30.3,43.2,38z"/>
                                                    </g>
                                                </g>
                                            </g>
                                </svg>