<?xml version="1.0" encoding="utf-8"?>
<!-- Generator: Adobe Illustrator 24.0.0, SVG Export Plug-In . SVG Version: 6.00 Build 0)  -->
<svg version="1.1" id="Layer_1" xmlns="http://www.w3.org/2000/svg" xmlns:xlink="http://www.w3.org/1999/xlink" x="0px" y="0px"
     viewBox="0 0 77 70" style="enable-background:new 0 0 77 70;" xml:space="preserve">
            <style type="text/css">
                .st0{fill:#b2b2b2;}
            </style>
    <g id="analytical_icon" transform="translate(.707 1.208)">
                                <path class="st0" d="M6.3,37.8c-3.7,0-6.5-2.6-6.5-6c0-3.1,2.4-6.4,6.4-6.4s6.4,3.2,6.4,6.4C12.7,34.7,10.1,37.8,6.3,37.8z
                     M6.2,27.4c-2.8,0-4.4,2.2-4.4,4.4c0,2.3,1.9,4,4.5,4c2.9,0,4.4-2.3,4.4-4C10.7,29.6,9,27.4,6.2,27.4z"/>
        <path class="st0" d="M22.8,68.8c-3.6,0-6.5-2.9-6.5-6.5s2.9-6.5,6.5-6.5s6.5,2.9,6.5,6.5S26.4,68.8,22.8,68.8z M22.8,57.8
                    c-2.5,0-4.5,2-4.5,4.5s2,4.5,4.5,4.5s4.5-2,4.5-4.5S25.3,57.8,22.8,57.8z"/>
        <path class="st0" d="M55.8,68.8c-3.6,0-6.5-2.9-6.5-6.5s2.9-6.5,6.5-6.5s6.5,2.9,6.5,6.5S59.4,68.8,55.8,68.8z M55.8,57.8
                    c-2.5,0-4.5,2-4.5,4.5s2,4.5,4.5,4.5s4.5-2,4.5-4.5S58.3,57.8,55.8,57.8z"/>
        <path class="st0" d="M22.8,10.8c-3.6,0-6.5-2.7-6.5-6s2.9-6,6.5-6s6.5,2.7,6.5,6S26.4,10.8,22.8,10.8z M22.8,0.8
                    c-2.5,0-4.5,1.8-4.5,4s2,4,4.5,4s4.5-1.8,4.5-4S25.3,0.8,22.8,0.8z"/>
        <path class="st0" d="M55.8,10.8c-3.6,0-6.5-2.7-6.5-6s2.9-6,6.5-6s6.5,2.7,6.5,6S59.4,10.8,55.8,10.8z M55.8,0.8
                    c-2.5,0-4.5,1.8-4.5,4s2,4,4.5,4s4.5-1.8,4.5-4S58.3,0.8,55.8,0.8z"/>
        <path class="st0" d="M70.3,37.8c-3.3,0-6-2.7-6-6s2.7-6,6-6s6,2.7,6,6S73.6,37.8,70.3,37.8z M70.3,27.8c-2.2,0-4,1.8-4,4s1.8,4,4,4
                    s4-1.8,4-4S72.5,27.8,70.3,27.8z"/>
        <rect x="28.3" y="62.8" class="st0" width="22" height="2"/>
        <rect x="12.5" y="35" transform="matrix(0.8784 -0.478 0.478 0.8784 -20.7809 12.164)" class="st0" width="2" height="23.8"/>
        <rect x="3.2" y="17" transform="matrix(0.4961 -0.8682 0.8682 0.4961 -8.6485 21.1439)" class="st0" width="21.4" height="2"/>
        <rect x="28.3" y="4.8" class="st0" width="22" height="2"/>
        <rect x="63.1" y="7.3" transform="matrix(0.8682 -0.4961 0.4961 0.8682 -0.4996 34.1655)" class="st0" width="2" height="21.4"/>
        <rect x="52.5" y="45.9" transform="matrix(0.4717 -0.8818 0.8818 0.4717 -7.3606 81.5466)" class="st0" width="23.7" height="2"/>
        <rect x="52.3" y="29.8" class="st0" width="13" height="2"/>
        <rect x="11.3" y="29.8" class="st0" width="16" height="2"/>
        <rect x="27.7" y="7.5" transform="matrix(0.8572 -0.515 0.515 0.8572 -3.8667 16.9838)" class="st0" width="2" height="15.9"/>
        <rect x="42.3" y="14.1" transform="matrix(0.498 -0.8672 0.8672 0.498 11.8754 50.6483)" class="st0" width="14.8" height="2"/>
        <rect x="49.1" y="42.5" transform="matrix(0.8952 -0.4456 0.4456 0.8952 -16.9914 27.5455)" class="st0" width="2" height="14.8"/>
        <rect x="20.8" y="49" transform="matrix(0.4961 -0.8682 0.8682 0.4961 -29.1923 49.7825)" class="st0" width="14.9" height="2"/>
        <path class="st0" d="M39.8,46.8c-7.4,0-13.5-6.3-13.5-14s6.1-14,13.5-14c7.4,0,13.5,6.3,13.5,14S47.2,46.8,39.8,46.8z M39.8,20.8
                    c-6.3,0-11.5,5.4-11.5,12c0,6.6,5.2,12,11.5,12c6.3,0,11.5-5.4,11.5-12C51.3,26.2,46.1,20.8,39.8,20.8z"/>
        <path class="st0" d="M39.8,43.2L39.8,43.2c-0.3,0-0.5-0.1-0.7-0.3l-4.6-5h-0.8c-1.5,0.1-2.7,1.4-2.7,2.9c0,0.6-0.4,1-1,1
                    c-0.6,0-1-0.4-1-1c-0.1-2.6,2-4.9,4.6-5l1.3,0c0.3,0,0.5,0.1,0.7,0.3l4.2,4.5l4.2-4.5c0.2-0.2,0.5-0.3,0.7-0.3h1.2
                    c2.7,0.1,4.8,2.3,4.7,5c0,0.6-0.5,1-1,1c-0.6,0-1-0.5-1-1c0.1-1.6-1.2-2.9-2.7-2.9l-0.7,0l-4.6,5C40.3,43.1,40,43.2,39.8,43.2z"/>
        <path class="st0" d="M39.3,34.8c-3.3,0-6-2.7-6-6s2.7-6,6-6s6,2.7,6,6S42.6,34.8,39.3,34.8z M39.3,24.8c-2.2,0-4,1.8-4,4s1.8,4,4,4
                    c2.2,0,4-1.8,4-4S41.5,24.8,39.3,24.8z"/>
                            </g>
            </svg>