<svg xmlns="http://www.w3.org/2000/svg" width="43.466" height="40.181" viewBox="0 0 43.466 40.181">
    <defs>
        <style>
            .cls-1,.cls-2{fill:none;stroke:#00b7c6;stroke-width:1.8px}.cls-1{stroke-linejoin:round}
        </style>
    </defs>
    <g id="Intermediaries_icon" transform="translate(-344.386 -46.365)">
        <circle id="Ellipse_312" cx="4.5" cy="4.5" r="4.5" class="cls-1" data-name="Ellipse 312" transform="translate(362 66.188)"/>
        <circle id="Ellipse_313" cx="4" cy="4" r="4" class="cls-1" data-name="Ellipse 313" transform="translate(374 62.188)"/>
        <path id="Path_7372" d="M4.41 0a4.546 4.546 0 0 1 4.41 4.67 4.546 4.546 0 0 1-4.41 4.67A4.546 4.546 0 0 1 0 4.67 4.546 4.546 0 0 1 4.41 0z" class="cls-2" data-name="Path 7372" transform="translate(350.484 60.789)"/>
        <path id="Path_7361" d="M374.4 90.058a2.717 2.717 0 0 0 2.717-2.717v-2.718a2.946 2.946 0 0 0-2.182-2.815c-.588-.2-2.347-.808-2.347-.808l-4.529 4.529-4.53-4.529s-1.759.61-2.347.808A2.946 2.946 0 0 0 359 84.623v2.717a2.717 2.717 0 0 0 2.717 2.717z" class="cls-1" data-name="Path 7361" transform="translate(-1.939 -4.412)"/>
        <path id="Path_7362" d="M362.5 75.808c-.588-.2-2.914-.808-2.914-.808l-4.529 4.529L350.529 75s-1.759.61-2.347.808A2.946 2.946 0 0 0 346 78.623v2.717a2.717 2.717 0 0 0 2.717 2.717h9.058" class="cls-1" data-name="Path 7362" transform="translate(-.714 -3.846)"/>
        <path id="Path_7363" d="M378.377 84.058h9.058a2.717 2.717 0 0 0 2.717-2.717v-2.718a2.946 2.946 0 0 0-2.182-2.815c-.588-.2-2.347-.808-2.347-.808l-4.529 4.529L376.565 75s-1.759.61-2.347.808" class="cls-1" data-name="Path 7363" transform="translate(-3.2 -3.846)"/>
        <path id="Path_7364" d="M375.135 60.678c-1.356-3.326-5.389-5.822-9.2-5.822h.317c-3.718 0-7.929 2.5-9.284 5.821" class="cls-1" data-name="Path 7364" transform="translate(.696 1.373)"/>
        <path id="Path_7365" d="M377.43 64.927l2.439.038.794-2.8-3.1-1.769a14.141 14.141 0 0 0 0-3.04l2.269-1.769-.794-2.8-3.867.061a14.591 14.591 0 0 0-1.607-2.619l1.993-3.14-2.169-2.05-3.322 1.884A15.872 15.872 0 0 0 367.3 45.4l.064-3.654L364.4 41l-1.872 3.187q-.794-.076-1.609-.077t-1.609.077L357.436 41l-2.963.75.064 3.654a15.874 15.874 0 0 0-2.772 1.519l-3.322-1.884-2.169 2.05 1.993 3.14a14.6 14.6 0 0 0-1.607 2.619l-3.867-.061-.794 2.8 3.372 1.769a14.147 14.147 0 0 0 0 3.04L342 62.165l.794 2.8 2.439-.038" class="cls-1" data-name="Path 7365" transform="translate(5.176 6.265)"/>
    </g>
</svg>
