<svg xmlns="http://www.w3.org/2000/svg" id="ag_risk_icon" width="104.558" height="104.558" viewBox="0 0 104.558 104.558">
    <defs>
        <style>
            .cls-1{fill:#212121}
        </style>
    </defs>
    <g id="Group_4154" data-name="Group 4154">
        <path id="Path_5497" d="M144.175 133.4a52.279 52.279 0 1 0 52.279 52.279 52.3 52.3 0 0 0-52.279-52.279zm0 101a48.672 48.672 0 1 1 48.619-48.724 48.661 48.661 0 0 1-48.619 48.73z" class="cls-1" data-name="Path 5497" transform="translate(-91.896 -133.403)"/>
    </g>
    <g id="Group_4155" data-name="Group 4155" transform="translate(7.528 7.528)">
        <path id="Path_5498" d="M162.845 218.3a5.237 5.237 0 0 0 1.926-2.479c.7-2.429-.181-4.976-.784-4.829s.1 3.519-.857 4.916a6.534 6.534 0 0 1-1.853 1.758 18.078 18.078 0 0 0-6.208.009c.03-.175.054-.35.087-.527.47-2.488 1.715-5.838 2.263-7.694.931-3.155 1.1-4.057 1.1-4.057h-4.869s-.9 3.2-1.568 7.1a49.088 49.088 0 0 1-6.937.421c-3.091-.142-8.232-4.443-9.173-4.083-.829.318 1.76 3.383 5.329 5.175a6.093 6.093 0 0 0-2.679 3.007c-.7 2.428.181 4.976.784 4.829s-.1-3.52.857-4.917a6.833 6.833 0 0 1 2.687-2.22 22.1 22.1 0 0 0 8.714.619 36.368 36.368 0 0 0-.306 4.548c.018 3.386 1.9 10.287 2.9 10.393.838.088.012-4.527.488-10l.015.057a28.871 28.871 0 0 1 6.879-.5c2.979.279 5.064 2.932 5.362 2.43.255-.443-1.836-2.721-4.157-3.956z" class="cls-1" data-name="Path 5498" transform="translate(-100.824 -143.226)"/>
        <path id="Path_5499" d="M144.423 141.179a44.75 44.75 0 0 0-41.221 62.17h49.3s10.15-43.644-5.411-47.022c-11.635-2.526-13 7.642-13.149 10.643a8.757 8.757 0 0 1 5.721 3.767 18.478 18.478 0 0 1 3.236 12.162 14.578 14.578 0 0 0-3.989-2.795c-5.564-2.981-7.183-7.325-7.64-10.139-.658 2.775-2.584 6.992-8.346 9.566a14.626 14.626 0 0 0-4.178 2.5 18.47 18.47 0 0 1 4.1-11.9c2.317-2.642 4.6-3.314 6.263-3.361.077-1.039 1.519-16.762 17.985-14.472 8.312 1.156 11.465 10.262 12.327 20.468a18.307 18.307 0 0 1 3.63-3.3 14.329 14.329 0 0 0 3.327-2.906 15.456 15.456 0 0 1-1.332 11.558c-1.69 2.918-3.762 3.563-5.378 3.511a141.246 141.246 0 0 1-2.3 21.718h28.278a44.75 44.75 0 0 0-41.221-62.17zm-13.434 36.476c.136.077 3.513 3.481 3.323 7.632a11.8 11.8 0 0 1-3.867 7.561 11.8 11.8 0 0 1-3.315-7.819c.107-4.152 3.719-7.306 3.859-7.374z" class="cls-1" data-name="Path 5499" transform="translate(-99.672 -141.179)"/>
    </g>
</svg>
