<svg xmlns="http://www.w3.org/2000/svg" viewBox="0 0 28 15" width="28" height="15">
	<style>
		tspan { white-space:pre }
		.shp0 { fill: none } 
		.shp1 { fill: #fff
		}
	</style>
	<path id="Path_658" class="shp0" d="M-7 -14L36.05 -14L36.05 29.05L-7 29.05L-7 -14Z" />
	<path id="Path_659" class="shp1" d="M21.71 5.73L0.17 5.73L0.17 9.32L21.71 9.32L21.71 14.7L28.87 7.52L21.71 0.35L21.71 5.73Z" />
</svg>