<svg xmlns="http://www.w3.org/2000/svg" width="30" height="30" viewBox="0 0 30 30">
    <defs>
        <style>
            .cls-1{fill:#fff}.cls-2{fill:#212121}.cls-3{clip-path:url(#clip-path)}
        </style>
        <clipPath id="clip-path">
            <path id="Rectangle_2900" d="M0 0h16v16H0z" class="cls-1" data-name="Rectangle 2900" transform="translate(102 5906)"/>
        </clipPath>
    </defs>
    <g id="Group_5272" data-name="Group 5272" transform="translate(-102 -5906)">
        <path id="Rectangle_2897" d="M0 0h30v30H0z" class="cls-2" data-name="Rectangle 2897" transform="translate(102 5906)"/>
        <g id="Mask_Group_9" class="cls-3" data-name="Mask Group 9" transform="translate(7 7)">
            <g id="_002-facebook-logo" data-name="002-facebook-logo" transform="translate(105.675 5906)">
                <path id="Path_7285" d="M15.215 0H13.14A3.644 3.644 0 0 0 9.3 3.938v1.815H7.216a.326.326 0 0 0-.326.326V8.71a.326.326 0 0 0 .326.326H9.3v6.637a.326.326 0 0 0 .329.327h2.722a.326.326 0 0 0 .326-.326V9.036h2.439a.326.326 0 0 0 .326-.326V6.08a.326.326 0 0 0-.326-.326h-2.44v-1.54c0-.74.176-1.115 1.14-1.115h1.4a.326.326 0 0 0 .326-.326V.33a.326.326 0 0 0-.327-.33z" class="cls-1" data-name="Path 7285" transform="translate(-6.89)"/>
            </g>
        </g>
    </g>
</svg>
