<svg xmlns="http://www.w3.org/2000/svg" id="hwind_icon" width="104.999" height="105.075" viewBox="0 0 104.999 105.075">
    <defs>
        <style>
            .cls-1{fill:none}.cls-2{fill:#2e2e2e}
        </style>
    </defs>
    <path id="Rectangle_1410" d="M0 0h104.999v104.999H0z" class="cls-1" data-name="Rectangle 1410" transform="translate(0 .076)"/>
    <g id="Group_4172" data-name="Group 4172" transform="translate(2.441)">
        <g id="Group_4169" data-name="Group 4169" transform="translate(7.329 7.277)">
            <g id="Layer_4" data-name="Layer 4">
                <path id="Path_5515" d="M2013.2 203.5z" class="cls-2" data-name="Path 5515" transform="translate(-1967.684 -142.914)"/>
                <path id="Path_5516" d="M2013.41 203.387l.308-.1c.409-.002.717-.104-.308.1z" class="cls-2" data-name="Path 5516" transform="translate(-1967.691 -142.907)"/>
                <path id="Path_5517" d="M2010.059 140.92a43.858 43.858 0 0 0-43.874 43.874 54.685 54.685 0 0 0 .513 7.073h6.971c4.1 0 8.3-.307 11.993-2.357 2.666-1.537 4.716-4.408 3.588-7.585-1.128-2.973-5.023-2.05-7.176-.923a6.15 6.15 0 0 1 4-2.768 5.994 5.994 0 0 1 4.2.717c2.768 1.845 2.563 6.15 2.563 6.458-.41 5.74-7.176 10.456-12.813 11.481a44.065 44.065 0 0 1-9.021.307h-3.076a21.207 21.207 0 0 0 1.231 3.588c2.665 0 5.125 0 7.176-.1 1.64 0 3.895-.205 4.92-.307 4.305-.513 11.994-3.588 14.659-10.558 1.435-3.588 2.255-10.046-1.538-13.737a10.288 10.288 0 0 0-6.765-2.563c-1.025 0-4.818 0-6.97 2.973-1.948 2.563-2.05 6.765 0 8.405 1.025.82 3.177 1.333 4.408.308a3.048 3.048 0 0 0 1.025-1.948 2.022 2.022 0 0 1 .307 1.537c-.1 1.538-1.845 2.871-3.383 2.973-2.666.205-5.331-2.46-6.356-5.023-1.435-3.9.923-8.406 3.69-10.764 4.819-4.1 12.917-3.177 17.734.82 6.561 5.331 5.331 14.556 5.125 16.2a20.451 20.451 0 0 1-3.177 8.405 21.954 21.954 0 0 1-9.124 7.585 23.218 23.218 0 0 1-9.43 2.665h-9.124c7.689 12.3 21.732 21.322 37.723 21.322a44.028 44.028 0 0 0 0-88.055zm2.256 12.4c2.563-4.511 8.508-4.408 9.226-4.408 5.33.1 8.816 4 9.636 5.023 6.766 7.689 2.665 18.965 2.461 19.477a22.032 22.032 0 0 1-4.921 7.586 29.552 29.552 0 0 1-13.838 8 51.984 51.984 0 0 1-5.741 1.23 88.278 88.278 0 0 0 8.2-4.2 32.532 32.532 0 0 0 5.536-3.69 30.819 30.819 0 0 0 4.1-4.817 22.117 22.117 0 0 0 2.665-6.664c1.333-6.56-1.025-15.889-6.356-17.734-1.742-.615-4.612-.717-6.15.923a4.306 4.306 0 0 0-1.229 2.563c0 .41-.205 2.256 1.025 3.178a2.523 2.523 0 0 0 2.665.205 4.1 4.1 0 0 0 1.024-1.845 5.121 5.121 0 0 1-.2 3.28 4.849 4.849 0 0 1-5.638 2.46 5.691 5.691 0 0 1-3.075-3.28 9.4 9.4 0 0 1 .61-7.283zm9.738 16.812a4.212 4.212 0 0 1 2.152 1.025 3.96 3.96 0 0 1 1.128 2.768c.205 2.768-2.153 5.023-3.9 6.663a27.277 27.277 0 0 1-4.408 3.28 58.718 58.718 0 0 1-6.663 3.485 14.74 14.74 0 0 0 1.537-.923 31.315 31.315 0 0 0 5.433-4.305 21.035 21.035 0 0 0 3.793-4.2 8.479 8.479 0 0 0 1.64-4.1 5.739 5.739 0 0 0-.718-3.69zm-16.4-8.611a6.119 6.119 0 0 1 2.871-4.2s-1.846 3.792.41 6.765a7.528 7.528 0 0 0 5.33 2.87c-2.87 1.332-6.048.82-7.586-1.128a6.315 6.315 0 0 1-1.025-4.305zm-.1 41.721c5.637-4.817 15.171-7.176 21.116-1.537 2.768 2.563 3.9 8-.41 9.738a3.817 3.817 0 0 1-3.177-.205 2.146 2.146 0 0 1-.513-2.972 1.237 1.237 0 0 1 .513-.513c-.1 1.128.41 2.357 1.743 2.256 2.665-.205 2.255-3.793 1.127-5.228-3.177-4.1-9.02-4.1-13.736-3.281l-.512.1a34.173 34.173 0 0 0-6.154 1.645zm22.141 13.429c-3.485.82-7.893-.82-9.123-4.305a4.779 4.779 0 0 1 1.23-5.125 5.816 5.816 0 0 0 .1 4.715c1.025 1.948 3.793 2.973 6.253 2.563a6.018 6.018 0 0 0 3.076-1.64c2.972-2.972 1.844-8.918-1.025-11.891-6.664-7.176-17.837-3.485-25.627-.308 6.356-4.92 14.453-8.2 22.449-5.433.718.205 7.586 3.281 8.918 9.944a10.437 10.437 0 0 1-1.332 7.79 7.561 7.561 0 0 1-4.921 3.69zm10.866-6.048a6.718 6.718 0 0 1-1.23 3.075 6.337 6.337 0 0 1-2.255 1.743 4.587 4.587 0 0 1-2.051.41 10.168 10.168 0 0 0 2.665-3.28 9.591 9.591 0 0 0 1.128-3.793 9.255 9.255 0 0 0-.512-4.1 7.421 7.421 0 0 1 2.252 5.948z" class="cls-2" data-name="Path 5517" transform="translate(-1966.186 -140.92)"/>
            </g>
        </g>
        <g id="Group_4171" data-name="Group 4171">
            <g id="Group_4170" data-name="Group 4170">
                <path id="Path_5518" d="M2009.869 133.4a51.254 51.254 0 1 0 51.255 51.254 51.272 51.272 0 0 0-51.255-51.254zm0 99.023a47.718 47.718 0 1 1 47.667-47.769 47.707 47.707 0 0 1-47.667 47.772z" class="cls-2" data-name="Path 5518" transform="translate(-1958.616 -133.403)"/>
            </g>
        </g>
    </g>
</svg>
