<?xml version="1.0" encoding="utf-8"?>
<!-- Generator: Adobe Illustrator 24.0.1, SVG Export Plug-In . SVG Version: 6.00 Build 0)  -->
<svg version="1.1" id="Layer_1" xmlns="http://www.w3.org/2000/svg" xmlns:xlink="http://www.w3.org/1999/xlink" x="0px" y="0px"
	 viewBox="0 0 30 30" style="enable-background:new 0 0 30 30;" xml:space="preserve">
<style type="text/css">
	.st0{fill:#C7C7C7;}
	.st1{clip-path:url(#SVGID_2_);}
	.st2{fill:#00B7C6;}
	.st3{clip-path:url(#SVGID_4_);}
	.st4{clip-path:url(#SVGID_6_);}
	.st5{clip-path:url(#SVGID_8_);}
	.st6{fill:none;}
	.st7{clip-path:url(#SVGID_12_);}
</style>
<g id="infographic_icon_2_" transform="translate(-809 -4994)">
	<g id="_008-graph-1_2_" transform="translate(809 4994.969)">
		<g id="Group_5528_2_">
			<g id="Group_5527_2_">
				<g>
					<path id="Path_7606_3_" class="st2" d="M10,25.8H2.9c-0.1,0-0.1-0.1-0.1-0.1V6.4h4.3c0.6,0,1-0.5,1-1.1V2.6H23
						c0.3,0,0.4-0.3,0.4-0.5c0-0.2-0.2-0.4-0.4-0.4H7.7c-0.1,0-0.3,0-0.4,0.1L2.2,5.5C2,5.6,1.9,5.9,1.9,6.1v19.5c0,0.6,0.4,1,1,1.1
						H10c0.3,0,0.4-0.3,0.4-0.5C10.4,26,10.2,25.8,10,25.8z M7.2,3v2.4c0,0.1-0.1,0.1-0.1,0.1H3.8L7.2,3z"/>
					<path class="st2" d="M2.9,26.8c-0.6,0-1.1-0.5-1.1-1.1l0-19.5c0-0.3,0.1-0.5,0.3-0.7l5.1-3.7c0.1-0.1,0.3-0.1,0.4-0.1H23
						c0.3,0,0.5,0.2,0.5,0.5c0,0.3-0.2,0.6-0.5,0.6l-14.8,0v2.7c0,0.6-0.4,1.1-1,1.1H2.8v19.1c0,0,0,0.1,0.1,0.1l7.1,0
						c0.3,0,0.5,0.2,0.5,0.5c0,0.3-0.2,0.6-0.5,0.6L2.9,26.8z M23,1.7l-15.2,0c-0.1,0-0.2,0-0.3,0.1L2.3,5.6C2.1,5.7,2,5.9,2,6.1
						v19.5c0,0.5,0.4,1,0.9,1H10c0.2,0,0.4-0.2,0.3-0.4c0-0.2-0.2-0.3-0.3-0.4H2.9c-0.1,0-0.2-0.1-0.2-0.2V6.4h4.4
						c0.5,0,0.9-0.5,0.9-1l0-2.8h15c0.2,0,0.4-0.2,0.3-0.4C23.3,1.9,23.1,1.8,23,1.7z M7.1,5.6H3.5l3.8-2.7v2.5
						C7.3,5.5,7.2,5.6,7.1,5.6z M4,5.4h3.1c0,0,0.1,0,0-0.1V3.2L4,5.4z"/>
				</g>
				<path id="Path_7607_2_" class="st2" d="M21.9,15.8h1.2c0.2,0,0.5-0.1,0.6-0.3c0.2-0.2,0.3-0.4,0.2-0.6c-0.1-2.4-1.1-4.6-2.8-6.2
					C19.4,7,17.2,6,14.8,6c-0.2,0-0.5,0.1-0.6,0.2c-0.2,0.2-0.3,0.4-0.3,0.6V8C10,8.2,7,11.4,6.9,15.2c0,1.9,0.8,3.8,2.2,5.1
					c0,0,0,0,0,0c0,0,0,0,0.1,0c1.4,1.3,3.3,2.1,5.2,2.1C18.3,22.6,21.5,19.6,21.9,15.8z M14.9,7c4.2,0.2,7.6,3.5,7.9,7.7h-7.9
					L14.9,7z M8,15.2c0-3.3,2.6-6,5.9-6.2v5.9c0,0,0,0.1,0,0.1l-4.4,4.2C8.5,18.2,8,16.7,8,15.2L8,15.2z M14.4,21.5
					c-1.5,0-3-0.5-4.1-1.5l4.4-4.2c0,0,0.1,0,0.1,0h6C20.4,19,17.7,21.5,14.4,21.5L14.4,21.5z"/>
				<g>
					<path id="Path_7609_3_" class="st2" d="M27.4,1.7h-2.3c-0.2,0-0.4,0.2-0.4,0.5c0,0.2,0.2,0.5,0.4,0.5h2.3
						c0.1,0,0.1,0.1,0.1,0.1v22.9c0,0.1-0.1,0.1-0.1,0.1H12.3c-0.3,0-0.4,0.3-0.4,0.5c0,0.2,0.2,0.4,0.4,0.4h15.1c0.6,0,1-0.5,1-1.1
						V2.7C28.4,2.2,27.9,1.7,27.4,1.7z"/>
					<path class="st2" d="M12.3,26.8c-0.3,0-0.5-0.2-0.5-0.5c0-0.3,0.2-0.6,0.5-0.6l15.1,0c0,0,0,0,0-0.1V2.7c0,0,0,0,0,0
						c0,0,0,0,0,0h-2.3c-0.3,0-0.5-0.3-0.5-0.5c0-0.3,0.2-0.5,0.5-0.5h2.3c0.6,0,1.1,0.5,1,1.1l0,22.9c0,0.6-0.4,1.1-1,1.1H12.3z
						 M27.4,2.5c0.1,0,0.1,0,0.1,0.1s0.1,0.1,0.1,0.1v22.9c0,0.1-0.1,0.2-0.2,0.2H12.3c-0.2,0-0.4,0.2-0.3,0.4
						c0,0.2,0.2,0.3,0.4,0.4l15.1,0c0.5,0,0.9-0.5,0.9-1l0-22.9c0-0.5-0.4-1-0.9-1h-2.3c-0.2,0-0.4,0.2-0.3,0.4
						c0,0.2,0.1,0.4,0.3,0.4H27.4z"/>
				</g>
			</g>
		</g>
	</g>
</g>
</svg>
