<?xml version="1.0" encoding="utf-8"?>
<!-- Generator: Adobe Illustrator 24.0.0, SVG Export Plug-In . SVG Version: 6.00 Build 0)  -->
<svg version="1.1" id="Layer_1" xmlns="http://www.w3.org/2000/svg" xmlns:xlink="http://www.w3.org/1999/xlink" x="0px" y="0px"
	 viewBox="0 0 32 32" style="enable-background:new 0 0 32 32;" xml:space="preserve">
<rect x="14.18" y="9.56" width="5.5" height="0.5"/>
<polygon points="23.36,23.56 22.4,23.56 22.4,23.06 22.86,23.06 22.86,7.56 22.4,7.56 22.4,7.06 23.36,7.06 "/>
<path d="M12.57,7.06l-3.15,3.15v7.2l0.5-0.21v-6.64h3v-3h8.5v15.5H9.93v-2.21l-0.5,0.21v2.5h12.5V7.06H12.57z M12.43,10.06h-2.15
	l2.15-2.15V10.06z"/>
<g>
	<path d="M15.6,21.26c-0.59,0-1.19-0.12-1.76-0.35c-1.13-0.47-2-1.35-2.47-2.48c-0.96-2.33,0.15-5,2.48-5.96
		c2.33-0.96,5.01,0.16,5.97,2.48c0.96,2.33-0.16,5-2.49,5.96C16.78,21.15,16.19,21.26,15.6,21.26z M15.59,12.62
		c-0.52,0-1.04,0.1-1.54,0.31c-2.07,0.85-3.07,3.24-2.21,5.31c0.41,1,1.19,1.79,2.2,2.21c1.01,0.42,2.11,0.42,3.11,0h0
		c2.07-0.85,3.07-3.24,2.21-5.31C18.71,13.57,17.19,12.62,15.59,12.62z"/>
	<path d="M6.15,21.77c-0.15,0-0.31-0.03-0.46-0.09c-0.29-0.12-0.52-0.35-0.64-0.64c-0.12-0.29-0.12-0.61,0-0.91
		c0.12-0.29,0.35-0.52,0.64-0.64l5.67-2.34l0.19,0.46l-5.67,2.34c-0.17,0.07-0.3,0.2-0.37,0.37s-0.07,0.36,0,0.52
		c0.07,0.17,0.2,0.3,0.37,0.37s0.36,0.07,0.52,0l5.67-2.34l0.19,0.46L6.6,21.68C6.46,21.74,6.31,21.77,6.15,21.77z"/>
</g>
</svg>
