<svg xmlns="http://www.w3.org/2000/svg" id="terrorism_icon" width="104.558" height="104.558" viewBox="0 0 104.558 104.558">
    <defs>
        <style>
            .cls-1{fill:#2e2e2e}
        </style>
    </defs>
    <g id="Group_4186" data-name="Group 4186">
        <g id="Group_4184" data-name="Group 4184">
            <path id="Path_5532" d="M1291.623 133.4a52.279 52.279 0 1 0 52.279 52.279 52.3 52.3 0 0 0-52.279-52.279zm.523 101a48.619 48.619 0 1 1 48.619-48.619 48.661 48.661 0 0 1-48.619 48.625z" class="cls-1" data-name="Path 5532" transform="translate(-1239.344 -133.403)"/>
        </g>
        <g id="Group_4185" data-name="Group 4185" transform="translate(7.528 7.528)">
            <path id="Path_5533" d="M1301.267 186.05h7.633a14.631 14.631 0 0 0-13-12.795v7.633a7.259 7.259 0 0 1 5.367 5.162z" class="cls-1" data-name="Path 5533" transform="translate(-1248.675 -142.201)"/>
            <path id="Path_5534" d="M1272.268 190.791h-3.768c1.255 11.5 9.8 20.977 22.344 22.128v-3.346a20.959 20.959 0 0 1-18.576-18.782z" class="cls-1" data-name="Path 5534" transform="translate(-1247.801 -142.76)"/>
            <path id="Path_5535" d="M1291.171 181v-7.633c-6.273.941-11.783 6.417-12.515 12.69h7.424a8.975 8.975 0 0 1 5.091-5.057z" class="cls-1" data-name="Path 5535" transform="translate(-1248.125 -142.205)"/>
            <path id="Path_5536" d="M1286.292 190.791h-7.528c1.046 6.273 6.137 11.672 12.411 12.613v-7.528a6.558 6.558 0 0 1-4.883-5.085z" class="cls-1" data-name="Path 5536" transform="translate(-1248.128 -142.76)"/>
            <path id="Path_5537" d="M1295.9 209.573v3.346c11.5-.941 21.571-9.581 22.617-22.128h-3.555c-1.148 10.456-8.603 17.945-19.062 18.782z" class="cls-1" data-name="Path 5537" transform="translate(-1248.675 -142.76)"/>
            <path id="Path_5538" d="M1292.08 141.179a44.96 44.96 0 1 0 44.96 44.96 45.025 45.025 0 0 0-44.96-44.96zm39.909 48.031h-11.469a28.665 28.665 0 0 1-26.171 25.578v9.972h-4.182v-9.972a28.3 28.3 0 0 1-25.794-25.578h-11.847v-4.182h18.957c.732-9.41 9.273-17.814 18.684-18.859v-4.078c-10.456.941-19.207 8.3-22.239 20.846h-3.555a28.3 28.3 0 0 1 25.794-24.3v-11.25h4.182v11.253c13.593.941 24.5 11.749 26.067 24.3h-3.555a24.741 24.741 0 0 0-22.512-20.846v3.973a21.34 21.34 0 0 1 19.166 18.964h18.475v4.182z" class="cls-1" data-name="Path 5538" transform="translate(-1247.12 -141.179)"/>
            <path id="Path_5539" d="M1295.9 195.98v7.528c6.274-.836 11.847-6.444 12.893-12.717h-7.737c-.73 3.137-3.062 4.457-5.156 5.189z" class="cls-1" data-name="Path 5539" transform="translate(-1248.675 -142.76)"/>
        </g>
    </g>
    <path id="Path_5540" d="M1296.989 188.259h-3.1v-3.1h-.523v3.1h-3.1v.523h3.1v3.1h.523v-3.1h3.1z" class="cls-1" data-name="Path 5540" transform="translate(-1240.967 -135.053)"/>
</svg>
