<svg xmlns="http://www.w3.org/2000/svg" width="104.558" height="104.558" viewBox="0 0 104.558 104.558">
    <defs>
        <style>
            .cls-1{fill:#2e2e2e}
        </style>
    </defs>
    <path id="wildfirs_icon" d="M1835.927 219.439l.091.077.055-.077zm-15.234-30.9c.03.472.064.944.108 1.413.025.272.056.543.086.814q.072.64.162 1.273c.041.283.08.564.125.844.066.414.143.826.221 1.236.052.275.1.551.157.824a51.716 51.716 0 0 0 .68 2.762c.1.35.193.7.3 1.049.111.364.232.723.352 1.082.087.263.174.527.266.788.135.384.278.765.424 1.144q.126.328.258.655c.165.408.332.814.509 1.216.064.146.13.289.2.435a44.741 44.741 0 0 0 3.287 6.02q.489.751 1.007 1.481.518.73 1.065 1.439.7.9 1.441 1.773c1.622-2.106 3.8-5.021 6.021-8.258h-6.015c-.754 0-1.033-.538-.62-1.2 0 0 4.412-5.659 8.63-12.316h-6.205c-.666 0-.912-.475-.547-1.055a149.428 149.428 0 0 0 8.866-12.886c2.1-3.485 4.622-8.563 4.622-8.563a.724.724 0 0 1 1.328 0s2.519 5.078 4.621 8.563c.56.927 1.134 1.842 1.709 2.735q.409.636.817 1.254l.026.04q.393.6.78 1.17l.06.088q.367.54.722 1.058l.1.14.657.945.116.167c.208.3.41.582.608.859l.113.159.553.772.124.17.516.708.076.106c.185.252.361.491.524.71.841 1.132 1.368 1.808 1.368 1.808a.741.741 0 0 1 .1.757l-.011.015a.485.485 0 0 1-.087.108.329.329 0 0 1-.044.029.6.6 0 0 1-.1.065.941.941 0 0 1-.1.033c-.028.009-.053.02-.084.027a1.173 1.173 0 0 1-.227.021h-6.205l.175.273a175.007 175.007 0 0 0 8.456 12.043c.413.657.134 1.2-.62 1.2h-6.015c4.408 6.425 8.674 11.62 8.674 11.62.466.7.151 1.279-.7 1.279h-6.692a204.914 204.914 0 0 0 8.358 11.053 45.535 45.535 0 0 0 2.572-.1 3.736 3.736 0 0 0-.36-.691l-.064-.095-.073-.087c-.034-.041-2.742-3.31-6.1-7.859h2.353a2.95 2.95 0 0 0 2.551-4.727l-.062-.095-.073-.088c-.034-.042-2.786-3.4-6.106-7.988h1.73a2.986 2.986 0 0 0 2.685-1.487 3.037 3.037 0 0 0-.184-3.113l-.06-.094-.069-.089a174.946 174.946 0 0 1-6.275-8.729h2.1a2.894 2.894 0 0 0 2.6-1.447 2.926 2.926 0 0 0-.14-2.958l6.807-4.207 10.379 6.935.658.439 15.294 10.208-2.465 3.717h-5.473v16.426a43.017 43.017 0 0 0 2.3-1.438 47.396 47.396 0 0 0 2.1-1.5c.126-.1.248-.2.373-.293q.8-.623 1.578-1.28c.172-.146.343-.3.513-.444q.723-.633 1.417-1.3c.148-.141.3-.28.444-.423a45.032 45.032 0 0 0 3.389-3.716c.118-.144.229-.293.344-.439q.6-.759 1.175-1.545c.145-.2.287-.4.429-.6q.532-.759 1.031-1.541c.122-.191.247-.38.367-.572.431-.7.849-1.4 1.242-2.124l.016-.027c.4-.739.78-1.492 1.142-2.255.1-.2.184-.41.277-.614q.382-.839.733-1.7l.3-.767q.323-.839.611-1.7c.081-.239.167-.477.243-.718.25-.779.483-1.566.69-2.364l.02-.071c.212-.821.4-1.655.561-2.493.05-.252.09-.506.135-.76.107-.6.205-1.2.289-1.8a47.979 47.979 0 0 0 .287-2.708c.02-.271.045-.54.061-.812.051-.873.084-1.751.084-2.637a44.786 44.786 0 0 0-89.571 0c0 .715.02 1.424.054 2.13.013.236.031.466.045.699zM1853.978 177c.836-3.371 3.523-6.308 5.914-9.2 2.435-2.952 6.266-5.745 8.094-8.913 1.9-3.29 2.769-6.14 1.658-9.663l.1-.019a16.711 16.711 0 0 1 10.051 6.457 14.457 14.457 0 0 1 3.107 10.022 17.334 17.334 0 0 1-1.261 5.824l.022.009c3.612-.718 5.886-4.641 4.826-7.644l.123-.024c5.754 1.992 7.444 6.3 8.267 10.954a15.446 15.446 0 0 1-5.013 14.524 19.664 19.664 0 0 1-6.23 3.9l-1.689-1.128a8.108 8.108 0 0 0 2.408-5.993c-.175-4.261-4.465-6.948-6.329-10.74-.94-1.911-1.864-3.32-.786-5.272-3.73 1.928-6.446 4.907-6.717 8.405a6.8 6.8 0 0 0 .523 3.58 6.774 6.774 0 0 1-3.892-5.907c-4.617 3.106-6.213 7.839-4.932 12.341l-.785.484c-1.673-2.246-4.779-6.55-7.494-11.053l-.108-.181c.043-.263.081-.515.143-.763zm20.181 30.933v7.315h7.314v-7.315zm-8.812-74.526a52.279 52.279 0 1 0 52.279 52.279 52.3 52.3 0 0 0-52.279-52.286zm0 101a48.672 48.672 0 1 1 48.619-48.724 48.661 48.661 0 0 1-48.619 48.723z" class="cls-1" transform="translate(-1813.068 -133.403)"/>
</svg>
